{
    "_links": {
        "self": {
            "href": "http:\/\/default\/uk\/taxonomy\/term\/30?_format=hal_json"
        },
        "type": {
            "href": "http:\/\/drupal.org\/rest\/type\/taxonomy_term\/tovar"
        },
        "http:\/\/drupal.org\/rest\/relation\/taxonomy_term\/tovar\/parent": [
            null
        ],
        "http:\/\/drupal.org\/rest\/relation\/taxonomy_term\/tovar\/field_mobile_image": [
            {
                "href": "http:\/\/default\/sites\/default\/files\/2019-10\/cheers_11.svg"
            }
        ],
        "http:\/\/drupal.org\/rest\/relation\/taxonomy_term\/tovar\/field_zobrazhennya_tovaru": [
            {
                "href": "http:\/\/default\/sites\/default\/files\/2019-02\/316.jpg"
            }
        ]
    },
    "tid": [
        {
            "value": 30
        }
    ],
    "uuid": [
        {
            "value": "2fd1f6c8-00b8-478b-9908-57bf64787dee"
        }
    ],
    "langcode": [
        {
            "value": "uk",
            "lang": "uk"
        }
    ],
    "vid": [
        {
            "target_id": "tovar"
        }
    ],
    "status": [
        {
            "value": true,
            "lang": "uk"
        }
    ],
    "name": [
        {
            "value": "\u0422\u0435\u043a\u0456\u043b\u0430",
            "lang": "uk"
        }
    ],
    "weight": [
        {
            "value": 22
        }
    ],
    "_embedded": {
        "http:\/\/drupal.org\/rest\/relation\/taxonomy_term\/tovar\/parent": [
            null
        ],
        "http:\/\/drupal.org\/rest\/relation\/taxonomy_term\/tovar\/field_mobile_image": [
            {
                "_links": {
                    "self": {
                        "href": "http:\/\/default\/sites\/default\/files\/2019-10\/cheers_11.svg"
                    },
                    "type": {
                        "href": "http:\/\/drupal.org\/rest\/type\/file\/file"
                    }
                },
                "uuid": [
                    {
                        "value": "7beb3aeb-ebfb-43d7-bb29-7cbc59011f46"
                    }
                ]
            }
        ],
        "http:\/\/drupal.org\/rest\/relation\/taxonomy_term\/tovar\/field_zobrazhennya_tovaru": [
            {
                "_links": {
                    "self": {
                        "href": "http:\/\/default\/sites\/default\/files\/2019-02\/316.jpg"
                    },
                    "type": {
                        "href": "http:\/\/drupal.org\/rest\/type\/file\/file"
                    }
                },
                "uuid": [
                    {
                        "value": "7e5e8c46-5bbb-453e-8c78-e013327d8685"
                    }
                ]
            }
        ]
    },
    "changed": [
        {
            "value": "2019-10-17T07:37:07+00:00",
            "lang": "uk",
            "format": "Y-m-d\\TH:i:sP"
        }
    ],
    "default_langcode": [
        {
            "value": true,
            "lang": "uk"
        }
    ],
    "path": {
        "alias": "\/uk\/taxonomy\/term\/30"
    },
    "field_opis_tovaru": [
        {
            "value": "<p><em>\u0422\u0435\u043a\u0456\u0301\u043b\u0430<\/em>&nbsp;\u2014 \u0441\u043f\u0438\u0440\u0442\u043d\u0438\u0439 \u043d\u0430\u043f\u0456\u0439 \u0456\u0437 \u0441\u043e\u043a\u0443 \u0441\u0435\u0440\u0446\u0435\u0432\u0438\u043d\u0438 \u0431\u043b\u0430\u043a\u0438\u0442\u043d\u043e\u0457 \u0430\u0433\u0430\u0432\u0438. \u041c\u0456\u0446\u043d\u0456\u0441\u0442\u044c \u043d\u0430\u043f\u043e\u044e 38-40% \u0456 \u0443 \u043d\u044c\u043e\u043c\u0443 \u043d\u0456\u043a\u043e\u043b\u0438 \u043d\u0435 \u0431\u0443\u043b\u043e \u0445\u0440\u043e\u0431\u0430\u0447\u043a\u0430. \u0414\u0435\u044f\u043a\u0456 \u0432\u0438\u0440\u043e\u0431\u043d\u0438\u043a\u0438 \u043d\u0430\u0432\u043c\u0438\u0441\u043d\u043e&nbsp;...<\/p>\r\n",
            "format": "basic_html",
            "processed": "<p><em>\u0422\u0435\u043a\u0456\u0301\u043b\u0430<\/em>\u00a0\u2014 \u0441\u043f\u0438\u0440\u0442\u043d\u0438\u0439 \u043d\u0430\u043f\u0456\u0439 \u0456\u0437 \u0441\u043e\u043a\u0443 \u0441\u0435\u0440\u0446\u0435\u0432\u0438\u043d\u0438 \u0431\u043b\u0430\u043a\u0438\u0442\u043d\u043e\u0457 \u0430\u0433\u0430\u0432\u0438. \u041c\u0456\u0446\u043d\u0456\u0441\u0442\u044c \u043d\u0430\u043f\u043e\u044e 38-40% \u0456 \u0443 \u043d\u044c\u043e\u043c\u0443 \u043d\u0456\u043a\u043e\u043b\u0438 \u043d\u0435 \u0431\u0443\u043b\u043e \u0445\u0440\u043e\u0431\u0430\u0447\u043a\u0430. \u0414\u0435\u044f\u043a\u0456 \u0432\u0438\u0440\u043e\u0431\u043d\u0438\u043a\u0438 \u043d\u0430\u0432\u043c\u0438\u0441\u043d\u043e\u00a0...<\/p>"
        }
    ]
}