{
    "_links": {
        "self": {
            "href": "http:\/\/default\/uk\/taxonomy\/term\/6?_format=hal_json"
        },
        "type": {
            "href": "http:\/\/drupal.org\/rest\/type\/taxonomy_term\/dodatki"
        },
        "http:\/\/drupal.org\/rest\/relation\/taxonomy_term\/dodatki\/parent": [
            null
        ],
        "http:\/\/drupal.org\/rest\/relation\/taxonomy_term\/dodatki\/field_zobrazhennya_dodatku": [
            {
                "href": "http:\/\/default\/sites\/default\/files\/2019-02\/fruits.jpeg"
            }
        ]
    },
    "tid": [
        {
            "value": 6
        }
    ],
    "uuid": [
        {
            "value": "641f03e8-f217-435a-a75c-b7d7c800b548"
        }
    ],
    "langcode": [
        {
            "value": "uk",
            "lang": "uk"
        }
    ],
    "vid": [
        {
            "target_id": "dodatki"
        }
    ],
    "status": [
        {
            "value": true,
            "lang": "uk"
        }
    ],
    "name": [
        {
            "value": "\u0424\u0440\u0443\u043a\u0442\u043e\u0432\u0430 \u043f\u043e\u043b\u0438\u0432\u043a\u0430",
            "lang": "uk"
        }
    ],
    "weight": [
        {
            "value": 0
        }
    ],
    "_embedded": {
        "http:\/\/drupal.org\/rest\/relation\/taxonomy_term\/dodatki\/parent": [
            null
        ],
        "http:\/\/drupal.org\/rest\/relation\/taxonomy_term\/dodatki\/field_zobrazhennya_dodatku": [
            {
                "_links": {
                    "self": {
                        "href": "http:\/\/default\/sites\/default\/files\/2019-02\/fruits.jpeg"
                    },
                    "type": {
                        "href": "http:\/\/drupal.org\/rest\/type\/file\/file"
                    }
                },
                "uuid": [
                    {
                        "value": "d9e71b2d-e08b-4826-b5ef-d615ac83499a"
                    }
                ]
            }
        ]
    },
    "changed": [
        {
            "value": "2019-02-18T15:52:21+00:00",
            "lang": "uk",
            "format": "Y-m-d\\TH:i:sP"
        }
    ],
    "default_langcode": [
        {
            "value": true,
            "lang": "uk"
        }
    ],
    "path": {
        "alias": "\/uk\/taxonomy\/term\/6"
    },
    "field_opis_dodatku": [
        {
            "value": "<p><em>\u0424\u0440\u0443\u043a\u0442\u043e\u0432\u0430<\/em>&nbsp;\u0433\u043b\u0430\u0437\u0443\u0440 \u2013 \u0446\u0435 \u0442\u0430 \u043d\u0435\u043e\u0431\u0445\u0456\u0434\u043d\u0430 \u0441\u043e\u043b\u043e\u0434\u043a\u0430 \u0441\u0443\u043c\u0456\u0448, \u0431\u0435\u0437 \u044f\u043a\u043e\u0457 \u043d\u0435 \u043c\u043e\u0436\u0435 \u043e\u0431\u0456\u0439\u0442\u0438\u0441\u044f \u0436\u043e\u0434\u043d\u0430 \u0432\u0438\u043f\u0456\u0447\u043a\u0430. \u0410\u0434\u0436\u0435 \u0433\u043b\u0430\u0437\u0443\u0440 \u043d\u0435 \u0442\u0456\u043b\u044c\u043a\u0438 \u0440\u043e\u0431\u0438\u0442\u044c \u0441\u043e\u043b\u043e\u0434\u043a\u0456 \u0441\u0442\u0440\u0430\u0432\u0438 \u0431\u0456\u043b\u044c\u0448&nbsp;...<\/p>\r\n",
            "format": "basic_html",
            "processed": "<p><em>\u0424\u0440\u0443\u043a\u0442\u043e\u0432\u0430<\/em>\u00a0\u0433\u043b\u0430\u0437\u0443\u0440 \u2013 \u0446\u0435 \u0442\u0430 \u043d\u0435\u043e\u0431\u0445\u0456\u0434\u043d\u0430 \u0441\u043e\u043b\u043e\u0434\u043a\u0430 \u0441\u0443\u043c\u0456\u0448, \u0431\u0435\u0437 \u044f\u043a\u043e\u0457 \u043d\u0435 \u043c\u043e\u0436\u0435 \u043e\u0431\u0456\u0439\u0442\u0438\u0441\u044f \u0436\u043e\u0434\u043d\u0430 \u0432\u0438\u043f\u0456\u0447\u043a\u0430. \u0410\u0434\u0436\u0435 \u0433\u043b\u0430\u0437\u0443\u0440 \u043d\u0435 \u0442\u0456\u043b\u044c\u043a\u0438 \u0440\u043e\u0431\u0438\u0442\u044c \u0441\u043e\u043b\u043e\u0434\u043a\u0456 \u0441\u0442\u0440\u0430\u0432\u0438 \u0431\u0456\u043b\u044c\u0448\u00a0...<\/p>"
        }
    ]
}