{
    "_links": {
        "self": {
            "href": ""
        },
        "type": {
            "href": "http:\/\/drupal.org\/rest\/type\/paragraph\/banner_with_background_slider"
        },
        "http:\/\/drupal.org\/rest\/relation\/paragraph\/banner_with_background_slider\/field_logo": [
            {
                "href": "http:\/\/default\/sites\/default\/files\/2019-02\/white_logo.png"
            }
        ],
        "http:\/\/drupal.org\/rest\/relation\/paragraph\/banner_with_background_slider\/field_slides": [
            {
                "href": ""
            },
            {
                "href": ""
            },
            {
                "href": ""
            }
        ]
    },
    "id": [
        {
            "value": 9
        }
    ],
    "uuid": [
        {
            "value": "c7bc9df1-a221-4e49-8fb0-01f60b3f7243"
        }
    ],
    "revision_id": [
        {
            "value": 836
        }
    ],
    "langcode": [
        {
            "value": "en",
            "lang": "en"
        }
    ],
    "type": [
        {
            "target_id": "banner_with_background_slider"
        }
    ],
    "status": [
        {
            "value": true,
            "lang": "en"
        }
    ],
    "created": [
        {
            "value": "2019-01-15T11:36:24+00:00",
            "lang": "en",
            "format": "Y-m-d\\TH:i:sP"
        }
    ],
    "parent_id": [
        {
            "value": "1"
        }
    ],
    "parent_type": [
        {
            "value": "node"
        }
    ],
    "parent_field_name": [
        {
            "value": "field_paragraphs"
        }
    ],
    "behavior_settings": [
        {
            "value": {
                "karabas_paragraphs_anchor": {
                    "title": "\u0413\u043e\u043b\u043e\u0432\u043d\u0430",
                    "weight": "1"
                }
            }
        }
    ],
    "default_langcode": [
        {
            "value": true,
            "lang": "en"
        }
    ],
    "_embedded": {
        "http:\/\/drupal.org\/rest\/relation\/paragraph\/banner_with_background_slider\/field_logo": [
            {
                "_links": {
                    "self": {
                        "href": "http:\/\/default\/sites\/default\/files\/2019-02\/white_logo.png"
                    },
                    "type": {
                        "href": "http:\/\/drupal.org\/rest\/type\/file\/file"
                    }
                },
                "uuid": [
                    {
                        "value": "fda2a76a-7866-4ea3-b36a-a062d2c11fd0"
                    }
                ]
            }
        ],
        "http:\/\/drupal.org\/rest\/relation\/paragraph\/banner_with_background_slider\/field_slides": [
            {
                "_links": {
                    "self": {
                        "href": ""
                    },
                    "type": {
                        "href": "http:\/\/drupal.org\/rest\/type\/paragraph\/slide"
                    }
                },
                "uuid": [
                    {
                        "value": "622e2b4b-651a-4724-9fad-ac79109d7996"
                    }
                ],
                "target_revision_id": "833"
            },
            {
                "_links": {
                    "self": {
                        "href": ""
                    },
                    "type": {
                        "href": "http:\/\/drupal.org\/rest\/type\/paragraph\/slide"
                    }
                },
                "uuid": [
                    {
                        "value": "c1fa3045-dcd9-420a-a76d-a843eca4abc7"
                    }
                ],
                "target_revision_id": "834"
            },
            {
                "_links": {
                    "self": {
                        "href": ""
                    },
                    "type": {
                        "href": "http:\/\/drupal.org\/rest\/type\/paragraph\/slide"
                    }
                },
                "uuid": [
                    {
                        "value": "9dfce1a4-c948-4d60-aa1d-052bc27459a6"
                    }
                ],
                "target_revision_id": "835"
            }
        ]
    }
}