{
    "_links": {
        "self": {
            "href": "http:\/\/default\/sites\/default\/files\/2019-10\/%D0%A7%D0%B5%D0%B1%D1%83%D1%80%D0%B5%D0%BA%20%D0%B7%20%D0%BC%D1%8F%D1%81%D0%BE%D0%BC.jpg"
        },
        "type": {
            "href": "http:\/\/drupal.org\/rest\/type\/file\/file"
        },
        "http:\/\/drupal.org\/rest\/relation\/file\/file\/uid": [
            {
                "href": "http:\/\/default\/en\/user\/1?_format=hal_json"
            }
        ]
    },
    "fid": [
        {
            "value": 191
        }
    ],
    "uuid": [
        {
            "value": "293f6f5f-dc8b-4884-8bed-a3f670bc9141"
        }
    ],
    "langcode": [
        {
            "value": "uk"
        }
    ],
    "_embedded": {
        "http:\/\/drupal.org\/rest\/relation\/file\/file\/uid": [
            {
                "_links": {
                    "self": {
                        "href": "http:\/\/default\/en\/user\/1?_format=hal_json"
                    },
                    "type": {
                        "href": "http:\/\/drupal.org\/rest\/type\/user\/user"
                    }
                },
                "uuid": [
                    {
                        "value": "45d2b412-82bf-4566-b487-ca24b15722e0"
                    }
                ]
            }
        ]
    },
    "filename": [
        {
            "value": "\u0427\u0435\u0431\u0443\u0440\u0435\u043a \u0437 \u043c\u044f\u0441\u043e\u043c.jpg"
        }
    ],
    "uri": [
        {
            "value": "public:\/\/2019-10\/\u0427\u0435\u0431\u0443\u0440\u0435\u043a \u0437 \u043c\u044f\u0441\u043e\u043c.jpg",
            "url": "\/sites\/default\/files\/2019-10\/%D0%A7%D0%B5%D0%B1%D1%83%D1%80%D0%B5%D0%BA%20%D0%B7%20%D0%BC%D1%8F%D1%81%D0%BE%D0%BC.jpg"
        }
    ],
    "filemime": [
        {
            "value": "image\/jpeg"
        }
    ],
    "filesize": [
        {
            "value": 4989676
        }
    ],
    "status": [
        {
            "value": true
        }
    ],
    "created": [
        {
            "value": "2019-10-01T12:27:00+00:00",
            "format": "Y-m-d\\TH:i:sP"
        }
    ],
    "changed": [
        {
            "value": "2019-10-01T12:27:02+00:00",
            "format": "Y-m-d\\TH:i:sP"
        }
    ]
}