{
    "_links": {
        "self": {
            "href": "http:\/\/default\/sites\/default\/files\/2019-10\/%D0%94%D0%BE%D0%B1%D1%80%D0%B0%20%D0%B4%D0%BE%D1%88%D0%BA%D0%B0%20%D0%B4%D0%BE%20%D0%BF%D0%B8%D0%B2%D0%BA%D0%B0.jpg"
        },
        "type": {
            "href": "http:\/\/drupal.org\/rest\/type\/file\/file"
        },
        "http:\/\/drupal.org\/rest\/relation\/file\/file\/uid": [
            {
                "href": "http:\/\/default\/en\/user\/1?_format=hal_json"
            }
        ]
    },
    "fid": [
        {
            "value": 136
        }
    ],
    "uuid": [
        {
            "value": "46262ec4-5854-4820-9ee7-00648842d2d9"
        }
    ],
    "langcode": [
        {
            "value": "uk"
        }
    ],
    "_embedded": {
        "http:\/\/drupal.org\/rest\/relation\/file\/file\/uid": [
            {
                "_links": {
                    "self": {
                        "href": "http:\/\/default\/en\/user\/1?_format=hal_json"
                    },
                    "type": {
                        "href": "http:\/\/drupal.org\/rest\/type\/user\/user"
                    }
                },
                "uuid": [
                    {
                        "value": "45d2b412-82bf-4566-b487-ca24b15722e0"
                    }
                ]
            }
        ]
    },
    "filename": [
        {
            "value": "\u0414\u043e\u0431\u0440\u0430 \u0434\u043e\u0448\u043a\u0430 \u0434\u043e \u043f\u0438\u0432\u043a\u0430.jpg"
        }
    ],
    "uri": [
        {
            "value": "public:\/\/2019-10\/\u0414\u043e\u0431\u0440\u0430 \u0434\u043e\u0448\u043a\u0430 \u0434\u043e \u043f\u0438\u0432\u043a\u0430.jpg",
            "url": "\/sites\/default\/files\/2019-10\/%D0%94%D0%BE%D0%B1%D1%80%D0%B0%20%D0%B4%D0%BE%D1%88%D0%BA%D0%B0%20%D0%B4%D0%BE%20%D0%BF%D0%B8%D0%B2%D0%BA%D0%B0.jpg"
        }
    ],
    "filemime": [
        {
            "value": "image\/jpeg"
        }
    ],
    "filesize": [
        {
            "value": 9929664
        }
    ],
    "status": [
        {
            "value": true
        }
    ],
    "created": [
        {
            "value": "2019-10-01T11:05:30+00:00",
            "format": "Y-m-d\\TH:i:sP"
        }
    ],
    "changed": [
        {
            "value": "2019-10-01T11:05:48+00:00",
            "format": "Y-m-d\\TH:i:sP"
        }
    ]
}