{
    "_links": {
        "self": {
            "href": "http:\/\/default\/sites\/default\/files\/2019-10\/%D0%9A%D1%83%D1%80%D1%8F%D1%87%D0%B8%D0%B9%20%D0%B1%D1%83%D0%BB%D1%8C%D0%B9%D0%BE%D0%BD.jpg"
        },
        "type": {
            "href": "http:\/\/drupal.org\/rest\/type\/file\/file"
        },
        "http:\/\/drupal.org\/rest\/relation\/file\/file\/uid": [
            {
                "href": "http:\/\/default\/en\/user\/1?_format=hal_json"
            }
        ]
    },
    "fid": [
        {
            "value": 168
        }
    ],
    "uuid": [
        {
            "value": "7efeeaf6-073d-420f-9b5c-1975f668019f"
        }
    ],
    "langcode": [
        {
            "value": "uk"
        }
    ],
    "_embedded": {
        "http:\/\/drupal.org\/rest\/relation\/file\/file\/uid": [
            {
                "_links": {
                    "self": {
                        "href": "http:\/\/default\/en\/user\/1?_format=hal_json"
                    },
                    "type": {
                        "href": "http:\/\/drupal.org\/rest\/type\/user\/user"
                    }
                },
                "uuid": [
                    {
                        "value": "45d2b412-82bf-4566-b487-ca24b15722e0"
                    }
                ]
            }
        ]
    },
    "filename": [
        {
            "value": "\u041a\u0443\u0440\u044f\u0447\u0438\u0439 \u0431\u0443\u043b\u044c\u0439\u043e\u043d.jpg"
        }
    ],
    "uri": [
        {
            "value": "public:\/\/2019-10\/\u041a\u0443\u0440\u044f\u0447\u0438\u0439 \u0431\u0443\u043b\u044c\u0439\u043e\u043d.jpg",
            "url": "\/sites\/default\/files\/2019-10\/%D0%9A%D1%83%D1%80%D1%8F%D1%87%D0%B8%D0%B9%20%D0%B1%D1%83%D0%BB%D1%8C%D0%B9%D0%BE%D0%BD.jpg"
        }
    ],
    "filemime": [
        {
            "value": "image\/jpeg"
        }
    ],
    "filesize": [
        {
            "value": 10675968
        }
    ],
    "status": [
        {
            "value": true
        }
    ],
    "created": [
        {
            "value": "2019-10-01T11:40:55+00:00",
            "format": "Y-m-d\\TH:i:sP"
        }
    ],
    "changed": [
        {
            "value": "2019-10-01T11:41:03+00:00",
            "format": "Y-m-d\\TH:i:sP"
        }
    ]
}