{
    "_links": {
        "self": {
            "href": "http:\/\/default\/sites\/default\/files\/2019-10\/%D0%A1%D0%B8%D1%80%D0%BD%D0%B8%D0%B9%20%D0%B4%D0%B5%D1%81%D0%B5%D1%80%D1%82_0.jpg"
        },
        "type": {
            "href": "http:\/\/drupal.org\/rest\/type\/file\/file"
        },
        "http:\/\/drupal.org\/rest\/relation\/file\/file\/uid": [
            {
                "href": "http:\/\/default\/en\/user\/1?_format=hal_json"
            }
        ]
    },
    "fid": [
        {
            "value": 356
        }
    ],
    "uuid": [
        {
            "value": "839fd2c1-877b-4a7e-a270-5ff32351a8c5"
        }
    ],
    "langcode": [
        {
            "value": "uk"
        }
    ],
    "_embedded": {
        "http:\/\/drupal.org\/rest\/relation\/file\/file\/uid": [
            {
                "_links": {
                    "self": {
                        "href": "http:\/\/default\/en\/user\/1?_format=hal_json"
                    },
                    "type": {
                        "href": "http:\/\/drupal.org\/rest\/type\/user\/user"
                    }
                },
                "uuid": [
                    {
                        "value": "45d2b412-82bf-4566-b487-ca24b15722e0"
                    }
                ]
            }
        ]
    },
    "filename": [
        {
            "value": "\u0421\u0438\u0440\u043d\u0438\u0439 \u0434\u0435\u0441\u0435\u0440\u0442_0.jpg"
        }
    ],
    "uri": [
        {
            "value": "public:\/\/2019-10\/\u0421\u0438\u0440\u043d\u0438\u0439 \u0434\u0435\u0441\u0435\u0440\u0442_0.jpg",
            "url": "\/sites\/default\/files\/2019-10\/%D0%A1%D0%B8%D1%80%D0%BD%D0%B8%D0%B9%20%D0%B4%D0%B5%D1%81%D0%B5%D1%80%D1%82_0.jpg"
        }
    ],
    "filemime": [
        {
            "value": "image\/jpeg"
        }
    ],
    "filesize": [
        {
            "value": 7948985
        }
    ],
    "status": [
        {
            "value": true
        }
    ],
    "created": [
        {
            "value": "2019-10-23T12:17:03+00:00",
            "format": "Y-m-d\\TH:i:sP"
        }
    ],
    "changed": [
        {
            "value": "2019-10-23T12:17:04+00:00",
            "format": "Y-m-d\\TH:i:sP"
        }
    ]
}