{
    "_links": {
        "self": {
            "href": "http:\/\/default\/sites\/default\/files\/2019-10\/%D0%96%D1%83%D1%80%D0%B0%D0%B2%D0%BB%D0%B8%D0%BD%D0%B0.jpg"
        },
        "type": {
            "href": "http:\/\/drupal.org\/rest\/type\/file\/file"
        },
        "http:\/\/drupal.org\/rest\/relation\/file\/file\/uid": [
            {
                "href": "http:\/\/default\/en\/user\/1?_format=hal_json"
            }
        ]
    },
    "fid": [
        {
            "value": 283
        }
    ],
    "uuid": [
        {
            "value": "8e13a23e-a838-437b-aaea-18ff7aa1fd90"
        }
    ],
    "langcode": [
        {
            "value": "uk"
        }
    ],
    "_embedded": {
        "http:\/\/drupal.org\/rest\/relation\/file\/file\/uid": [
            {
                "_links": {
                    "self": {
                        "href": "http:\/\/default\/en\/user\/1?_format=hal_json"
                    },
                    "type": {
                        "href": "http:\/\/drupal.org\/rest\/type\/user\/user"
                    }
                },
                "uuid": [
                    {
                        "value": "45d2b412-82bf-4566-b487-ca24b15722e0"
                    }
                ]
            }
        ]
    },
    "filename": [
        {
            "value": "\u0416\u0443\u0440\u0430\u0432\u043b\u0438\u043d\u0430.jpg"
        }
    ],
    "uri": [
        {
            "value": "public:\/\/2019-10\/\u0416\u0443\u0440\u0430\u0432\u043b\u0438\u043d\u0430.jpg",
            "url": "\/sites\/default\/files\/2019-10\/%D0%96%D1%83%D1%80%D0%B0%D0%B2%D0%BB%D0%B8%D0%BD%D0%B0.jpg"
        }
    ],
    "filemime": [
        {
            "value": "image\/jpeg"
        }
    ],
    "filesize": [
        {
            "value": 7686739
        }
    ],
    "status": [
        {
            "value": true
        }
    ],
    "created": [
        {
            "value": "2019-10-16T13:38:37+00:00",
            "format": "Y-m-d\\TH:i:sP"
        }
    ],
    "changed": [
        {
            "value": "2019-10-16T13:38:39+00:00",
            "format": "Y-m-d\\TH:i:sP"
        }
    ]
}