{
    "_links": {
        "self": {
            "href": "http:\/\/default\/sites\/default\/files\/2019-10\/%D0%A1%D0%B0%D0%BB%D0%B0%D1%82%20%D0%B7%20%D1%8F%D0%B7%D0%B8%D0%BA%D0%BE%D0%BC%20%D1%82%D0%B0%20%D1%84%D0%B5%D1%82%D0%BE%D1%8E.jpg"
        },
        "type": {
            "href": "http:\/\/drupal.org\/rest\/type\/file\/file"
        },
        "http:\/\/drupal.org\/rest\/relation\/file\/file\/uid": [
            {
                "href": "http:\/\/default\/en\/user\/1?_format=hal_json"
            }
        ]
    },
    "fid": [
        {
            "value": 155
        }
    ],
    "uuid": [
        {
            "value": "a4949a98-9849-4c86-892b-1bda446215bc"
        }
    ],
    "langcode": [
        {
            "value": "uk"
        }
    ],
    "_embedded": {
        "http:\/\/drupal.org\/rest\/relation\/file\/file\/uid": [
            {
                "_links": {
                    "self": {
                        "href": "http:\/\/default\/en\/user\/1?_format=hal_json"
                    },
                    "type": {
                        "href": "http:\/\/drupal.org\/rest\/type\/user\/user"
                    }
                },
                "uuid": [
                    {
                        "value": "45d2b412-82bf-4566-b487-ca24b15722e0"
                    }
                ]
            }
        ]
    },
    "filename": [
        {
            "value": "\u0421\u0430\u043b\u0430\u0442 \u0437 \u044f\u0437\u0438\u043a\u043e\u043c \u0442\u0430 \u0444\u0435\u0442\u043e\u044e.jpg"
        }
    ],
    "uri": [
        {
            "value": "public:\/\/2019-10\/\u0421\u0430\u043b\u0430\u0442 \u0437 \u044f\u0437\u0438\u043a\u043e\u043c \u0442\u0430 \u0444\u0435\u0442\u043e\u044e.jpg",
            "url": "\/sites\/default\/files\/2019-10\/%D0%A1%D0%B0%D0%BB%D0%B0%D1%82%20%D0%B7%20%D1%8F%D0%B7%D0%B8%D0%BA%D0%BE%D0%BC%20%D1%82%D0%B0%20%D1%84%D0%B5%D1%82%D0%BE%D1%8E.jpg"
        }
    ],
    "filemime": [
        {
            "value": "image\/jpeg"
        }
    ],
    "filesize": [
        {
            "value": 11898258
        }
    ],
    "status": [
        {
            "value": true
        }
    ],
    "created": [
        {
            "value": "2019-10-01T11:25:47+00:00",
            "format": "Y-m-d\\TH:i:sP"
        }
    ],
    "changed": [
        {
            "value": "2019-10-01T11:25:52+00:00",
            "format": "Y-m-d\\TH:i:sP"
        }
    ]
}