{
    "_links": {
        "self": {
            "href": "http:\/\/default\/sites\/default\/files\/2019-10\/mashed-potatoes.svg"
        },
        "type": {
            "href": "http:\/\/drupal.org\/rest\/type\/file\/file"
        },
        "http:\/\/drupal.org\/rest\/relation\/file\/file\/uid": [
            {
                "href": "http:\/\/default\/en\/user\/1?_format=hal_json"
            }
        ]
    },
    "fid": [
        {
            "value": 337
        }
    ],
    "uuid": [
        {
            "value": "bf9a8f24-4ec4-485b-ba3b-1c6bd5542651"
        }
    ],
    "langcode": [
        {
            "value": "uk"
        }
    ],
    "_embedded": {
        "http:\/\/drupal.org\/rest\/relation\/file\/file\/uid": [
            {
                "_links": {
                    "self": {
                        "href": "http:\/\/default\/en\/user\/1?_format=hal_json"
                    },
                    "type": {
                        "href": "http:\/\/drupal.org\/rest\/type\/user\/user"
                    }
                },
                "uuid": [
                    {
                        "value": "45d2b412-82bf-4566-b487-ca24b15722e0"
                    }
                ]
            }
        ]
    },
    "filename": [
        {
            "value": "mashed-potatoes.svg"
        }
    ],
    "uri": [
        {
            "value": "public:\/\/2019-10\/mashed-potatoes.svg",
            "url": "\/sites\/default\/files\/2019-10\/mashed-potatoes.svg"
        }
    ],
    "filemime": [
        {
            "value": "image\/svg+xml"
        }
    ],
    "filesize": [
        {
            "value": 1719
        }
    ],
    "status": [
        {
            "value": true
        }
    ],
    "created": [
        {
            "value": "2019-10-22T13:01:51+00:00",
            "format": "Y-m-d\\TH:i:sP"
        }
    ],
    "changed": [
        {
            "value": "2019-10-22T13:01:52+00:00",
            "format": "Y-m-d\\TH:i:sP"
        }
    ]
}