{
    "_links": {
        "self": {
            "href": "http:\/\/default\/sites\/default\/files\/2019-10\/%D0%9F%D0%B0%D1%82%D0%B5%D0%BB%D1%8C%D0%BD%D1%8F%20%D0%9C%D1%8F%D1%81%D0%BD%D0%B0_1.jpg"
        },
        "type": {
            "href": "http:\/\/drupal.org\/rest\/type\/file\/file"
        },
        "http:\/\/drupal.org\/rest\/relation\/file\/file\/uid": [
            {
                "href": "http:\/\/default\/en\/user\/1?_format=hal_json"
            }
        ]
    },
    "fid": [
        {
            "value": 178
        }
    ],
    "uuid": [
        {
            "value": "c4362dc1-37e5-4f1c-b852-f3e54745890e"
        }
    ],
    "langcode": [
        {
            "value": "uk"
        }
    ],
    "_embedded": {
        "http:\/\/drupal.org\/rest\/relation\/file\/file\/uid": [
            {
                "_links": {
                    "self": {
                        "href": "http:\/\/default\/en\/user\/1?_format=hal_json"
                    },
                    "type": {
                        "href": "http:\/\/drupal.org\/rest\/type\/user\/user"
                    }
                },
                "uuid": [
                    {
                        "value": "45d2b412-82bf-4566-b487-ca24b15722e0"
                    }
                ]
            }
        ]
    },
    "filename": [
        {
            "value": "\u041f\u0430\u0442\u0435\u043b\u044c\u043d\u044f \u041c\u044f\u0441\u043d\u0430_1.jpg"
        }
    ],
    "uri": [
        {
            "value": "public:\/\/2019-10\/\u041f\u0430\u0442\u0435\u043b\u044c\u043d\u044f \u041c\u044f\u0441\u043d\u0430_1.jpg",
            "url": "\/sites\/default\/files\/2019-10\/%D0%9F%D0%B0%D1%82%D0%B5%D0%BB%D1%8C%D0%BD%D1%8F%20%D0%9C%D1%8F%D1%81%D0%BD%D0%B0_1.jpg"
        }
    ],
    "filemime": [
        {
            "value": "image\/jpeg"
        }
    ],
    "filesize": [
        {
            "value": 9931100
        }
    ],
    "status": [
        {
            "value": true
        }
    ],
    "created": [
        {
            "value": "2019-10-01T11:52:03+00:00",
            "format": "Y-m-d\\TH:i:sP"
        }
    ],
    "changed": [
        {
            "value": "2019-10-01T11:52:09+00:00",
            "format": "Y-m-d\\TH:i:sP"
        }
    ]
}