{
    "_links": {
        "self": {
            "href": "http:\/\/default\/sites\/default\/files\/2019-02\/318.jpeg"
        },
        "type": {
            "href": "http:\/\/drupal.org\/rest\/type\/file\/file"
        },
        "http:\/\/drupal.org\/rest\/relation\/file\/file\/uid": [
            {
                "href": "http:\/\/default\/en\/user\/1?_format=hal_json"
            }
        ]
    },
    "fid": [
        {
            "value": 254
        }
    ],
    "uuid": [
        {
            "value": "cc8c228c-8ca5-4996-bbe4-8caa1051223e"
        }
    ],
    "langcode": [
        {
            "value": "uk"
        }
    ],
    "_embedded": {
        "http:\/\/drupal.org\/rest\/relation\/file\/file\/uid": [
            {
                "_links": {
                    "self": {
                        "href": "http:\/\/default\/en\/user\/1?_format=hal_json"
                    },
                    "type": {
                        "href": "http:\/\/drupal.org\/rest\/type\/user\/user"
                    }
                },
                "uuid": [
                    {
                        "value": "45d2b412-82bf-4566-b487-ca24b15722e0"
                    }
                ]
            }
        ]
    },
    "filename": [
        {
            "value": "318.jpeg"
        }
    ],
    "uri": [
        {
            "value": "public:\/\/2019-02\/318.jpeg",
            "url": "\/sites\/default\/files\/2019-02\/318.jpeg"
        }
    ],
    "filemime": [
        {
            "value": "image\/jpeg"
        }
    ],
    "filesize": [
        {
            "value": 5086
        }
    ],
    "status": [
        {
            "value": true
        }
    ],
    "created": [
        {
            "value": "2019-02-18T15:44:47+00:00",
            "format": "Y-m-d\\TH:i:sP"
        }
    ],
    "changed": [
        {
            "value": "2019-02-18T15:45:01+00:00",
            "format": "Y-m-d\\TH:i:sP"
        }
    ]
}