{
    "_links": {
        "self": {
            "href": "http:\/\/default\/sites\/default\/files\/2019-10\/%D0%94%D0%B5%D1%80%D1%83%D0%BD%D0%B8%20%D0%B7%20%D0%BA%D1%83%D1%80%D0%BA%D0%BE%D1%8E%20%D0%BF%D1%96%D0%B4%20%D1%81%D0%B8%D1%80%D0%BE%D0%BC.jpg"
        },
        "type": {
            "href": "http:\/\/drupal.org\/rest\/type\/file\/file"
        },
        "http:\/\/drupal.org\/rest\/relation\/file\/file\/uid": [
            {
                "href": "http:\/\/default\/en\/user\/1?_format=hal_json"
            }
        ]
    },
    "fid": [
        {
            "value": 226
        }
    ],
    "uuid": [
        {
            "value": "ceee2510-9678-4c85-8a96-2a5861e1170d"
        }
    ],
    "langcode": [
        {
            "value": "uk"
        }
    ],
    "_embedded": {
        "http:\/\/drupal.org\/rest\/relation\/file\/file\/uid": [
            {
                "_links": {
                    "self": {
                        "href": "http:\/\/default\/en\/user\/1?_format=hal_json"
                    },
                    "type": {
                        "href": "http:\/\/drupal.org\/rest\/type\/user\/user"
                    }
                },
                "uuid": [
                    {
                        "value": "45d2b412-82bf-4566-b487-ca24b15722e0"
                    }
                ]
            }
        ]
    },
    "filename": [
        {
            "value": "\u0414\u0435\u0440\u0443\u043d\u0438 \u0437 \u043a\u0443\u0440\u043a\u043e\u044e \u043f\u0456\u0434 \u0441\u0438\u0440\u043e\u043c.jpg"
        }
    ],
    "uri": [
        {
            "value": "public:\/\/2019-10\/\u0414\u0435\u0440\u0443\u043d\u0438 \u0437 \u043a\u0443\u0440\u043a\u043e\u044e \u043f\u0456\u0434 \u0441\u0438\u0440\u043e\u043c.jpg",
            "url": "\/sites\/default\/files\/2019-10\/%D0%94%D0%B5%D1%80%D1%83%D0%BD%D0%B8%20%D0%B7%20%D0%BA%D1%83%D1%80%D0%BA%D0%BE%D1%8E%20%D0%BF%D1%96%D0%B4%20%D1%81%D0%B8%D1%80%D0%BE%D0%BC.jpg"
        }
    ],
    "filemime": [
        {
            "value": "image\/jpeg"
        }
    ],
    "filesize": [
        {
            "value": 9905027
        }
    ],
    "status": [
        {
            "value": true
        }
    ],
    "created": [
        {
            "value": "2019-10-01T12:25:13+00:00",
            "format": "Y-m-d\\TH:i:sP"
        }
    ],
    "changed": [
        {
            "value": "2019-10-01T12:25:25+00:00",
            "format": "Y-m-d\\TH:i:sP"
        }
    ]
}