{
    "_links": {
        "self": {
            "href": "http:\/\/default\/sites\/default\/files\/2019-10\/cupcake.svg"
        },
        "type": {
            "href": "http:\/\/drupal.org\/rest\/type\/file\/file"
        },
        "http:\/\/drupal.org\/rest\/relation\/file\/file\/uid": [
            {
                "href": "http:\/\/default\/en\/user\/1?_format=hal_json"
            }
        ]
    },
    "fid": [
        {
            "value": 328
        }
    ],
    "uuid": [
        {
            "value": "d29e9571-252f-4760-bbc7-f2cc90e5e01b"
        }
    ],
    "langcode": [
        {
            "value": "uk"
        }
    ],
    "_embedded": {
        "http:\/\/drupal.org\/rest\/relation\/file\/file\/uid": [
            {
                "_links": {
                    "self": {
                        "href": "http:\/\/default\/en\/user\/1?_format=hal_json"
                    },
                    "type": {
                        "href": "http:\/\/drupal.org\/rest\/type\/user\/user"
                    }
                },
                "uuid": [
                    {
                        "value": "45d2b412-82bf-4566-b487-ca24b15722e0"
                    }
                ]
            }
        ]
    },
    "filename": [
        {
            "value": "cupcake.svg"
        }
    ],
    "uri": [
        {
            "value": "public:\/\/2019-10\/cupcake.svg",
            "url": "\/sites\/default\/files\/2019-10\/cupcake.svg"
        }
    ],
    "filemime": [
        {
            "value": "image\/svg+xml"
        }
    ],
    "filesize": [
        {
            "value": 4700
        }
    ],
    "status": [
        {
            "value": true
        }
    ],
    "created": [
        {
            "value": "2019-10-22T12:26:52+00:00",
            "format": "Y-m-d\\TH:i:sP"
        }
    ],
    "changed": [
        {
            "value": "2019-10-22T12:26:54+00:00",
            "format": "Y-m-d\\TH:i:sP"
        }
    ]
}