{
    "_links": {
        "self": {
            "href": "http:\/\/default\/sites\/default\/files\/2019-10\/%D0%9A%D1%80%D0%B8%D0%BB%D1%8C%D1%86%D1%8F%20%D0%B3%D0%BE%D0%BD%D0%BE%D1%80%D0%BE%D0%B2%D0%BE%D1%97%20%D0%BA%D1%83%D1%80%D0%BE%D1%87%D0%BA%D0%B8.jpg"
        },
        "type": {
            "href": "http:\/\/drupal.org\/rest\/type\/file\/file"
        },
        "http:\/\/drupal.org\/rest\/relation\/file\/file\/uid": [
            {
                "href": "http:\/\/default\/en\/user\/1?_format=hal_json"
            }
        ]
    },
    "fid": [
        {
            "value": 129
        }
    ],
    "uuid": [
        {
            "value": "da732313-e790-4db8-b782-4b1b49d10ece"
        }
    ],
    "langcode": [
        {
            "value": "uk"
        }
    ],
    "_embedded": {
        "http:\/\/drupal.org\/rest\/relation\/file\/file\/uid": [
            {
                "_links": {
                    "self": {
                        "href": "http:\/\/default\/en\/user\/1?_format=hal_json"
                    },
                    "type": {
                        "href": "http:\/\/drupal.org\/rest\/type\/user\/user"
                    }
                },
                "uuid": [
                    {
                        "value": "45d2b412-82bf-4566-b487-ca24b15722e0"
                    }
                ]
            }
        ]
    },
    "filename": [
        {
            "value": "\u041a\u0440\u0438\u043b\u044c\u0446\u044f \u0433\u043e\u043d\u043e\u0440\u043e\u0432\u043e\u0457 \u043a\u0443\u0440\u043e\u0447\u043a\u0438.jpg"
        }
    ],
    "uri": [
        {
            "value": "public:\/\/2019-10\/\u041a\u0440\u0438\u043b\u044c\u0446\u044f \u0433\u043e\u043d\u043e\u0440\u043e\u0432\u043e\u0457 \u043a\u0443\u0440\u043e\u0447\u043a\u0438.jpg",
            "url": "\/sites\/default\/files\/2019-10\/%D0%9A%D1%80%D0%B8%D0%BB%D1%8C%D1%86%D1%8F%20%D0%B3%D0%BE%D0%BD%D0%BE%D1%80%D0%BE%D0%B2%D0%BE%D1%97%20%D0%BA%D1%83%D1%80%D0%BE%D1%87%D0%BA%D0%B8.jpg"
        }
    ],
    "filemime": [
        {
            "value": "image\/jpeg"
        }
    ],
    "filesize": [
        {
            "value": 5969669
        }
    ],
    "status": [
        {
            "value": true
        }
    ],
    "created": [
        {
            "value": "2019-10-01T10:57:06+00:00",
            "format": "Y-m-d\\TH:i:sP"
        }
    ],
    "changed": [
        {
            "value": "2019-10-01T10:57:16+00:00",
            "format": "Y-m-d\\TH:i:sP"
        }
    ]
}