{
    "_links": {
        "self": {
            "href": "http:\/\/default\/sites\/default\/files\/2019-10\/%D0%94%D0%B5%D1%80%D1%83%D0%BD%D0%B8%20%D0%B7%20%D0%B3%D1%80%D0%B8%D0%B1%D0%B0%D0%BC%D0%B8.jpg"
        },
        "type": {
            "href": "http:\/\/drupal.org\/rest\/type\/file\/file"
        },
        "http:\/\/drupal.org\/rest\/relation\/file\/file\/uid": [
            {
                "href": "http:\/\/default\/en\/user\/1?_format=hal_json"
            }
        ]
    },
    "fid": [
        {
            "value": 186
        }
    ],
    "uuid": [
        {
            "value": "df6ea9af-1649-4543-8cef-7a14462f5158"
        }
    ],
    "langcode": [
        {
            "value": "uk"
        }
    ],
    "_embedded": {
        "http:\/\/drupal.org\/rest\/relation\/file\/file\/uid": [
            {
                "_links": {
                    "self": {
                        "href": "http:\/\/default\/en\/user\/1?_format=hal_json"
                    },
                    "type": {
                        "href": "http:\/\/drupal.org\/rest\/type\/user\/user"
                    }
                },
                "uuid": [
                    {
                        "value": "45d2b412-82bf-4566-b487-ca24b15722e0"
                    }
                ]
            }
        ]
    },
    "filename": [
        {
            "value": "\u0414\u0435\u0440\u0443\u043d\u0438 \u0437 \u0433\u0440\u0438\u0431\u0430\u043c\u0438.jpg"
        }
    ],
    "uri": [
        {
            "value": "public:\/\/2019-10\/\u0414\u0435\u0440\u0443\u043d\u0438 \u0437 \u0433\u0440\u0438\u0431\u0430\u043c\u0438.jpg",
            "url": "\/sites\/default\/files\/2019-10\/%D0%94%D0%B5%D1%80%D1%83%D0%BD%D0%B8%20%D0%B7%20%D0%B3%D1%80%D0%B8%D0%B1%D0%B0%D0%BC%D0%B8.jpg"
        }
    ],
    "filemime": [
        {
            "value": "image\/jpeg"
        }
    ],
    "filesize": [
        {
            "value": 9135070
        }
    ],
    "status": [
        {
            "value": true
        }
    ],
    "created": [
        {
            "value": "2019-10-01T12:23:44+00:00",
            "format": "Y-m-d\\TH:i:sP"
        }
    ],
    "changed": [
        {
            "value": "2019-10-01T12:23:46+00:00",
            "format": "Y-m-d\\TH:i:sP"
        }
    ]
}