{
    "_links": {
        "self": {
            "href": "http:\/\/default\/sites\/default\/files\/2019-10\/%D0%91%D0%BE%D0%B3%D1%80%D0%B0%D1%87.jpg"
        },
        "type": {
            "href": "http:\/\/drupal.org\/rest\/type\/file\/file"
        },
        "http:\/\/drupal.org\/rest\/relation\/file\/file\/uid": [
            {
                "href": "http:\/\/default\/en\/user\/1?_format=hal_json"
            }
        ]
    },
    "fid": [
        {
            "value": 167
        }
    ],
    "uuid": [
        {
            "value": "ea9245c6-f959-4769-bbd7-d0d9afc40d05"
        }
    ],
    "langcode": [
        {
            "value": "uk"
        }
    ],
    "_embedded": {
        "http:\/\/drupal.org\/rest\/relation\/file\/file\/uid": [
            {
                "_links": {
                    "self": {
                        "href": "http:\/\/default\/en\/user\/1?_format=hal_json"
                    },
                    "type": {
                        "href": "http:\/\/drupal.org\/rest\/type\/user\/user"
                    }
                },
                "uuid": [
                    {
                        "value": "45d2b412-82bf-4566-b487-ca24b15722e0"
                    }
                ]
            }
        ]
    },
    "filename": [
        {
            "value": "\u0411\u043e\u0433\u0440\u0430\u0447.jpg"
        }
    ],
    "uri": [
        {
            "value": "public:\/\/2019-10\/\u0411\u043e\u0433\u0440\u0430\u0447.jpg",
            "url": "\/sites\/default\/files\/2019-10\/%D0%91%D0%BE%D0%B3%D1%80%D0%B0%D1%87.jpg"
        }
    ],
    "filemime": [
        {
            "value": "image\/jpeg"
        }
    ],
    "filesize": [
        {
            "value": 11808149
        }
    ],
    "status": [
        {
            "value": true
        }
    ],
    "created": [
        {
            "value": "2019-10-01T11:40:15+00:00",
            "format": "Y-m-d\\TH:i:sP"
        }
    ],
    "changed": [
        {
            "value": "2019-10-01T11:40:18+00:00",
            "format": "Y-m-d\\TH:i:sP"
        }
    ]
}