{
    "_links": {
        "self": {
            "href": "http:\/\/default\/sites\/default\/files\/2019-10\/%D0%9E%D0%B2%D0%BE%D1%87%D1%96%20%D0%B3%D1%80%D0%B8%D0%BB%D1%8C_0.jpg"
        },
        "type": {
            "href": "http:\/\/drupal.org\/rest\/type\/file\/file"
        },
        "http:\/\/drupal.org\/rest\/relation\/file\/file\/uid": [
            {
                "href": "http:\/\/default\/en\/user\/1?_format=hal_json"
            }
        ]
    },
    "fid": [
        {
            "value": 215
        }
    ],
    "uuid": [
        {
            "value": "f72ddd49-4272-4611-a890-5e163a69d21f"
        }
    ],
    "langcode": [
        {
            "value": "uk"
        }
    ],
    "_embedded": {
        "http:\/\/drupal.org\/rest\/relation\/file\/file\/uid": [
            {
                "_links": {
                    "self": {
                        "href": "http:\/\/default\/en\/user\/1?_format=hal_json"
                    },
                    "type": {
                        "href": "http:\/\/drupal.org\/rest\/type\/user\/user"
                    }
                },
                "uuid": [
                    {
                        "value": "45d2b412-82bf-4566-b487-ca24b15722e0"
                    }
                ]
            }
        ]
    },
    "filename": [
        {
            "value": "\u041e\u0432\u043e\u0447\u0456 \u0433\u0440\u0438\u043b\u044c_0.jpg"
        }
    ],
    "uri": [
        {
            "value": "public:\/\/2019-10\/\u041e\u0432\u043e\u0447\u0456 \u0433\u0440\u0438\u043b\u044c_0.jpg",
            "url": "\/sites\/default\/files\/2019-10\/%D0%9E%D0%B2%D0%BE%D1%87%D1%96%20%D0%B3%D1%80%D0%B8%D0%BB%D1%8C_0.jpg"
        }
    ],
    "filemime": [
        {
            "value": "image\/jpeg"
        }
    ],
    "filesize": [
        {
            "value": 13153640
        }
    ],
    "status": [
        {
            "value": true
        }
    ],
    "created": [
        {
            "value": "2019-10-01T13:00:41+00:00",
            "format": "Y-m-d\\TH:i:sP"
        }
    ],
    "changed": [
        {
            "value": "2019-10-01T13:00:56+00:00",
            "format": "Y-m-d\\TH:i:sP"
        }
    ]
}