{
    "_links": {
        "self": {
            "href": "http:\/\/default\/uk\/node\/140?_format=hal_json"
        },
        "type": {
            "href": "http:\/\/drupal.org\/rest\/type\/node\/client_order"
        },
        "http:\/\/drupal.org\/rest\/relation\/node\/client_order\/revision_uid": [
            {
                "href": "http:\/\/default\/en\/user\/1?_format=hal_json"
            }
        ],
        "http:\/\/drupal.org\/rest\/relation\/node\/client_order\/uid": [
            {
                "href": "http:\/\/default\/en\/user\/1?_format=hal_json",
                "lang": "uk"
            }
        ],
        "http:\/\/drupal.org\/rest\/relation\/node\/client_order\/field_boxing": [
            {
                "href": "http:\/\/default\/uk\/taxonomy\/term\/44?_format=hal_json"
            }
        ],
        "http:\/\/drupal.org\/rest\/relation\/node\/client_order\/field_image": [
            {
                "href": "http:\/\/default\/sites\/default\/files\/2019-10\/%D0%9C%D0%BB%D0%B8%D0%BD%D1%86%D1%96%20%D0%B7%20%D0%BA%D1%83%D1%80%D0%BA%D0%BE%D1%8E%20%D1%82%D0%B0%20%D0%B3%D1%80%D0%B8%D0%B1%D0%B0%D0%BC%D0%B8%D0%B8.jpg",
                "lang": "uk"
            }
        ],
        "http:\/\/drupal.org\/rest\/relation\/node\/client_order\/field_made_in_country": [
            {
                "href": "http:\/\/default\/uk\/taxonomy\/term\/15?_format=hal_json"
            },
            {
                "href": "http:\/\/default\/uk\/taxonomy\/term\/14?_format=hal_json"
            }
        ],
        "http:\/\/drupal.org\/rest\/relation\/node\/client_order\/field_product": [
            {
                "href": "http:\/\/default\/uk\/taxonomy\/term\/19?_format=hal_json"
            }
        ]
    },
    "nid": [
        {
            "value": 140
        }
    ],
    "uuid": [
        {
            "value": "0d560d2e-6d9c-464f-ba9d-be86f73e2c30"
        }
    ],
    "vid": [
        {
            "value": 318
        }
    ],
    "langcode": [
        {
            "value": "uk",
            "lang": "uk"
        }
    ],
    "type": [
        {
            "target_id": "client_order"
        }
    ],
    "revision_timestamp": [
        {
            "value": "2019-10-22T12:56:21+00:00",
            "format": "Y-m-d\\TH:i:sP"
        }
    ],
    "_embedded": {
        "http:\/\/drupal.org\/rest\/relation\/node\/client_order\/revision_uid": [
            {
                "_links": {
                    "self": {
                        "href": "http:\/\/default\/en\/user\/1?_format=hal_json"
                    },
                    "type": {
                        "href": "http:\/\/drupal.org\/rest\/type\/user\/user"
                    }
                },
                "uuid": [
                    {
                        "value": "45d2b412-82bf-4566-b487-ca24b15722e0"
                    }
                ]
            }
        ],
        "http:\/\/drupal.org\/rest\/relation\/node\/client_order\/uid": [
            {
                "_links": {
                    "self": {
                        "href": "http:\/\/default\/en\/user\/1?_format=hal_json"
                    },
                    "type": {
                        "href": "http:\/\/drupal.org\/rest\/type\/user\/user"
                    }
                },
                "uuid": [
                    {
                        "value": "45d2b412-82bf-4566-b487-ca24b15722e0"
                    }
                ],
                "lang": "uk"
            }
        ],
        "http:\/\/drupal.org\/rest\/relation\/node\/client_order\/field_boxing": [
            {
                "_links": {
                    "self": {
                        "href": "http:\/\/default\/uk\/taxonomy\/term\/44?_format=hal_json"
                    },
                    "type": {
                        "href": "http:\/\/drupal.org\/rest\/type\/taxonomy_term\/boxing"
                    }
                },
                "uuid": [
                    {
                        "value": "e8c330b0-f8a2-4f32-b5d4-4c718c4e3cfc"
                    }
                ],
                "path": {
                    "alias": "\/uk\/taxonomy\/term\/44"
                }
            }
        ],
        "http:\/\/drupal.org\/rest\/relation\/node\/client_order\/field_image": [
            {
                "_links": {
                    "self": {
                        "href": "http:\/\/default\/sites\/default\/files\/2019-10\/%D0%9C%D0%BB%D0%B8%D0%BD%D1%86%D1%96%20%D0%B7%20%D0%BA%D1%83%D1%80%D0%BA%D0%BE%D1%8E%20%D1%82%D0%B0%20%D0%B3%D1%80%D0%B8%D0%B1%D0%B0%D0%BC%D0%B8%D0%B8.jpg"
                    },
                    "type": {
                        "href": "http:\/\/drupal.org\/rest\/type\/file\/file"
                    }
                },
                "uuid": [
                    {
                        "value": "094a7095-1f69-4776-88e5-5f5c14121142"
                    }
                ],
                "lang": "uk"
            }
        ],
        "http:\/\/drupal.org\/rest\/relation\/node\/client_order\/field_made_in_country": [
            {
                "_links": {
                    "self": {
                        "href": "http:\/\/default\/uk\/taxonomy\/term\/15?_format=hal_json"
                    },
                    "type": {
                        "href": "http:\/\/drupal.org\/rest\/type\/taxonomy_term\/tovar"
                    }
                },
                "uuid": [
                    {
                        "value": "ba58f0c1-b2a5-4977-86c0-4676b356221f"
                    }
                ],
                "path": {
                    "alias": "\/uk\/taxonomy\/term\/15"
                }
            },
            {
                "_links": {
                    "self": {
                        "href": "http:\/\/default\/uk\/taxonomy\/term\/14?_format=hal_json"
                    },
                    "type": {
                        "href": "http:\/\/drupal.org\/rest\/type\/taxonomy_term\/tovar"
                    }
                },
                "uuid": [
                    {
                        "value": "7f234b17-c55b-47fe-82c7-3ece853673f9"
                    }
                ],
                "path": {
                    "alias": "\/uk\/taxonomy\/term\/14"
                }
            }
        ],
        "http:\/\/drupal.org\/rest\/relation\/node\/client_order\/field_product": [
            {
                "_links": {
                    "self": {
                        "href": "http:\/\/default\/uk\/taxonomy\/term\/19?_format=hal_json"
                    },
                    "type": {
                        "href": "http:\/\/drupal.org\/rest\/type\/taxonomy_term\/tovar"
                    }
                },
                "uuid": [
                    {
                        "value": "74daecbb-a064-4a9c-af07-03b534b8b4b6"
                    }
                ],
                "path": {
                    "alias": "\/uk\/taxonomy\/term\/19"
                }
            }
        ]
    },
    "status": [
        {
            "value": true,
            "lang": "uk"
        }
    ],
    "title": [
        {
            "value": "\u041c\u043b\u0438\u043d\u0446\u0456 \u0437 \u043a\u0443\u0440\u043a\u043e\u044e \u0442\u0430 \u0433\u0440\u0438\u0431\u0430\u043c\u0438",
            "lang": "uk"
        }
    ],
    "created": [
        {
            "value": "2019-10-01T11:46:59+00:00",
            "lang": "uk",
            "format": "Y-m-d\\TH:i:sP"
        }
    ],
    "changed": [
        {
            "value": "2019-10-22T12:56:21+00:00",
            "lang": "uk",
            "format": "Y-m-d\\TH:i:sP"
        }
    ],
    "promote": [
        {
            "value": true,
            "lang": "uk"
        }
    ],
    "sticky": [
        {
            "value": false,
            "lang": "uk"
        }
    ],
    "default_langcode": [
        {
            "value": true,
            "lang": "uk"
        }
    ],
    "revision_translation_affected": [
        {
            "value": true,
            "lang": "uk"
        }
    ],
    "path": {
        "alias": "\/uk\/node\/140"
    },
    "add_to_cart": [
        {
            "value": true,
            "lang": "uk"
        }
    ],
    "add_to_cart_price": [
        {
            "value": "44.90",
            "lang": "uk"
        }
    ],
    "body": [
        {
            "value": "<p>\u041c\u043b\u0438\u043d\u0446\u0456 \u0437 \u043a\u0443\u0440\u043a\u043e\u044e \u0442\u0430 \u0433\u0440\u0438\u0431\u0430\u043c\u0438<\/p>\r\n",
            "format": "basic_html",
            "processed": "<p>\u041c\u043b\u0438\u043d\u0446\u0456 \u0437 \u043a\u0443\u0440\u043a\u043e\u044e \u0442\u0430 \u0433\u0440\u0438\u0431\u0430\u043c\u0438<\/p>",
            "summary": "",
            "lang": "uk"
        }
    ],
    "field_gramm": [
        {
            "value": "210\/25 \u0433.",
            "lang": "uk"
        }
    ]
}