{
    "_links": {
        "self": {
            "href": "http:\/\/default\/uk\/node\/164?_format=hal_json"
        },
        "type": {
            "href": "http:\/\/drupal.org\/rest\/type\/node\/client_order"
        },
        "http:\/\/drupal.org\/rest\/relation\/node\/client_order\/revision_uid": [
            {
                "href": "http:\/\/default\/en\/user\/1?_format=hal_json"
            }
        ],
        "http:\/\/drupal.org\/rest\/relation\/node\/client_order\/uid": [
            {
                "href": "http:\/\/default\/en\/user\/1?_format=hal_json",
                "lang": "uk"
            }
        ],
        "http:\/\/drupal.org\/rest\/relation\/node\/client_order\/field_boxing": [
            {
                "href": "http:\/\/default\/uk\/taxonomy\/term\/44?_format=hal_json"
            }
        ],
        "http:\/\/drupal.org\/rest\/relation\/node\/client_order\/field_image": [
            {
                "href": "http:\/\/default\/sites\/default\/files\/2019-10\/%D0%A4%D1%96%D0%BB%D0%B5%20%D1%81%D0%BA%D1%83%D0%BC%D0%B1%D1%80%D1%96%D1%97.jpg",
                "lang": "uk"
            }
        ],
        "http:\/\/drupal.org\/rest\/relation\/node\/client_order\/field_made_in_country": [
            {
                "href": "http:\/\/default\/uk\/taxonomy\/term\/15?_format=hal_json"
            },
            {
                "href": "http:\/\/default\/uk\/taxonomy\/term\/14?_format=hal_json"
            }
        ],
        "http:\/\/drupal.org\/rest\/relation\/node\/client_order\/field_product": [
            {
                "href": "http:\/\/default\/uk\/taxonomy\/term\/22?_format=hal_json"
            }
        ]
    },
    "nid": [
        {
            "value": 164
        }
    ],
    "uuid": [
        {
            "value": "1376e049-e19d-4ebc-be95-15332ee37430"
        }
    ],
    "vid": [
        {
            "value": 339
        }
    ],
    "langcode": [
        {
            "value": "uk",
            "lang": "uk"
        }
    ],
    "type": [
        {
            "target_id": "client_order"
        }
    ],
    "revision_timestamp": [
        {
            "value": "2019-10-22T13:03:56+00:00",
            "format": "Y-m-d\\TH:i:sP"
        }
    ],
    "_embedded": {
        "http:\/\/drupal.org\/rest\/relation\/node\/client_order\/revision_uid": [
            {
                "_links": {
                    "self": {
                        "href": "http:\/\/default\/en\/user\/1?_format=hal_json"
                    },
                    "type": {
                        "href": "http:\/\/drupal.org\/rest\/type\/user\/user"
                    }
                },
                "uuid": [
                    {
                        "value": "45d2b412-82bf-4566-b487-ca24b15722e0"
                    }
                ]
            }
        ],
        "http:\/\/drupal.org\/rest\/relation\/node\/client_order\/uid": [
            {
                "_links": {
                    "self": {
                        "href": "http:\/\/default\/en\/user\/1?_format=hal_json"
                    },
                    "type": {
                        "href": "http:\/\/drupal.org\/rest\/type\/user\/user"
                    }
                },
                "uuid": [
                    {
                        "value": "45d2b412-82bf-4566-b487-ca24b15722e0"
                    }
                ],
                "lang": "uk"
            }
        ],
        "http:\/\/drupal.org\/rest\/relation\/node\/client_order\/field_boxing": [
            {
                "_links": {
                    "self": {
                        "href": "http:\/\/default\/uk\/taxonomy\/term\/44?_format=hal_json"
                    },
                    "type": {
                        "href": "http:\/\/drupal.org\/rest\/type\/taxonomy_term\/boxing"
                    }
                },
                "uuid": [
                    {
                        "value": "e8c330b0-f8a2-4f32-b5d4-4c718c4e3cfc"
                    }
                ],
                "path": {
                    "alias": "\/uk\/taxonomy\/term\/44"
                }
            }
        ],
        "http:\/\/drupal.org\/rest\/relation\/node\/client_order\/field_image": [
            {
                "_links": {
                    "self": {
                        "href": "http:\/\/default\/sites\/default\/files\/2019-10\/%D0%A4%D1%96%D0%BB%D0%B5%20%D1%81%D0%BA%D1%83%D0%BC%D0%B1%D1%80%D1%96%D1%97.jpg"
                    },
                    "type": {
                        "href": "http:\/\/drupal.org\/rest\/type\/file\/file"
                    }
                },
                "uuid": [
                    {
                        "value": "53c510f3-c46f-407d-bf94-bba396c9cb89"
                    }
                ],
                "lang": "uk"
            }
        ],
        "http:\/\/drupal.org\/rest\/relation\/node\/client_order\/field_made_in_country": [
            {
                "_links": {
                    "self": {
                        "href": "http:\/\/default\/uk\/taxonomy\/term\/15?_format=hal_json"
                    },
                    "type": {
                        "href": "http:\/\/drupal.org\/rest\/type\/taxonomy_term\/tovar"
                    }
                },
                "uuid": [
                    {
                        "value": "ba58f0c1-b2a5-4977-86c0-4676b356221f"
                    }
                ],
                "path": {
                    "alias": "\/uk\/taxonomy\/term\/15"
                }
            },
            {
                "_links": {
                    "self": {
                        "href": "http:\/\/default\/uk\/taxonomy\/term\/14?_format=hal_json"
                    },
                    "type": {
                        "href": "http:\/\/drupal.org\/rest\/type\/taxonomy_term\/tovar"
                    }
                },
                "uuid": [
                    {
                        "value": "7f234b17-c55b-47fe-82c7-3ece853673f9"
                    }
                ],
                "path": {
                    "alias": "\/uk\/taxonomy\/term\/14"
                }
            }
        ],
        "http:\/\/drupal.org\/rest\/relation\/node\/client_order\/field_product": [
            {
                "_links": {
                    "self": {
                        "href": "http:\/\/default\/uk\/taxonomy\/term\/22?_format=hal_json"
                    },
                    "type": {
                        "href": "http:\/\/drupal.org\/rest\/type\/taxonomy_term\/tovar"
                    }
                },
                "uuid": [
                    {
                        "value": "41eee5c3-2ed5-4c5f-bfbe-470f6cce48e4"
                    }
                ],
                "path": {
                    "alias": "\/uk\/taxonomy\/term\/22"
                }
            }
        ]
    },
    "status": [
        {
            "value": true,
            "lang": "uk"
        }
    ],
    "title": [
        {
            "value": "\u0424\u0456\u043b\u0435 \u0421\u043a\u0443\u043c\u0431\u0440\u0456\u0457 ",
            "lang": "uk"
        }
    ],
    "created": [
        {
            "value": "2019-10-01T12:34:29+00:00",
            "lang": "uk",
            "format": "Y-m-d\\TH:i:sP"
        }
    ],
    "changed": [
        {
            "value": "2019-10-22T13:03:56+00:00",
            "lang": "uk",
            "format": "Y-m-d\\TH:i:sP"
        }
    ],
    "promote": [
        {
            "value": true,
            "lang": "uk"
        }
    ],
    "sticky": [
        {
            "value": false,
            "lang": "uk"
        }
    ],
    "default_langcode": [
        {
            "value": true,
            "lang": "uk"
        }
    ],
    "revision_translation_affected": [
        {
            "value": true,
            "lang": "uk"
        }
    ],
    "path": {
        "alias": "\/uk\/node\/164"
    },
    "add_to_cart": [
        {
            "value": true,
            "lang": "uk"
        }
    ],
    "add_to_cart_price": [
        {
            "value": "109.90",
            "lang": "uk"
        }
    ],
    "body": [
        {
            "value": "<p lang=\"uk-UA\">\u0424\u0456\u043b\u0435 \u0421\u043a\u0443\u043c\u0431\u0440\u0456\u0457 ( \u0444\u0456\u043b\u0435 \u0441\u043a\u0443\u043c\u0431\u0440\u0456\u0457 \u0433\u0440\u0438\u043b\u044c \u0432 \u043f\u0456\u043a\u0430\u043d\u0442\u043d\u043e\u043c\u0443 \u043b\u0438\u043c\u043e\u043d\u043d\u043e-\u0447\u0430\u0441\u043d\u0438\u043a\u043e\u0432\u043e\u043c\u0443 \u0441\u043e\u0443\u0441\u0456)<\/p>\r\n",
            "format": "basic_html",
            "processed": "<p lang=\"uk-UA\" xml:lang=\"uk-UA\" xml:lang=\"uk-UA\">\u0424\u0456\u043b\u0435 \u0421\u043a\u0443\u043c\u0431\u0440\u0456\u0457 ( \u0444\u0456\u043b\u0435 \u0441\u043a\u0443\u043c\u0431\u0440\u0456\u0457 \u0433\u0440\u0438\u043b\u044c \u0432 \u043f\u0456\u043a\u0430\u043d\u0442\u043d\u043e\u043c\u0443 \u043b\u0438\u043c\u043e\u043d\u043d\u043e-\u0447\u0430\u0441\u043d\u0438\u043a\u043e\u0432\u043e\u043c\u0443 \u0441\u043e\u0443\u0441\u0456)<\/p>",
            "summary": "",
            "lang": "uk"
        }
    ],
    "field_gramm": [
        {
            "value": "240 \u0433.",
            "lang": "uk"
        }
    ]
}