{
    "_links": {
        "self": {
            "href": "http:\/\/default\/uk\/node\/130?_format=hal_json"
        },
        "type": {
            "href": "http:\/\/drupal.org\/rest\/type\/node\/client_order"
        },
        "http:\/\/drupal.org\/rest\/relation\/node\/client_order\/revision_uid": [
            {
                "href": "http:\/\/default\/en\/user\/1?_format=hal_json"
            }
        ],
        "http:\/\/drupal.org\/rest\/relation\/node\/client_order\/uid": [
            {
                "href": "http:\/\/default\/en\/user\/1?_format=hal_json",
                "lang": "uk"
            }
        ],
        "http:\/\/drupal.org\/rest\/relation\/node\/client_order\/field_boxing": [
            {
                "href": "http:\/\/default\/uk\/taxonomy\/term\/44?_format=hal_json"
            }
        ],
        "http:\/\/drupal.org\/rest\/relation\/node\/client_order\/field_image": [
            {
                "href": "http:\/\/default\/sites\/default\/files\/2019-10\/%D0%A1%D0%BE%D0%BB%D1%8F%D0%BD%D0%BE%D1%87%D0%BA%D0%B0.jpg",
                "lang": "uk"
            }
        ],
        "http:\/\/drupal.org\/rest\/relation\/node\/client_order\/field_made_in_country": [
            {
                "href": "http:\/\/default\/uk\/taxonomy\/term\/15?_format=hal_json"
            },
            {
                "href": "http:\/\/default\/uk\/taxonomy\/term\/14?_format=hal_json"
            }
        ],
        "http:\/\/drupal.org\/rest\/relation\/node\/client_order\/field_product": [
            {
                "href": "http:\/\/default\/uk\/taxonomy\/term\/17?_format=hal_json"
            }
        ]
    },
    "nid": [
        {
            "value": 130
        }
    ],
    "uuid": [
        {
            "value": "1ddd4dc1-3369-4e1d-8020-65d54678874c"
        }
    ],
    "vid": [
        {
            "value": 308
        }
    ],
    "langcode": [
        {
            "value": "uk",
            "lang": "uk"
        }
    ],
    "type": [
        {
            "target_id": "client_order"
        }
    ],
    "revision_timestamp": [
        {
            "value": "2019-10-22T12:53:18+00:00",
            "format": "Y-m-d\\TH:i:sP"
        }
    ],
    "_embedded": {
        "http:\/\/drupal.org\/rest\/relation\/node\/client_order\/revision_uid": [
            {
                "_links": {
                    "self": {
                        "href": "http:\/\/default\/en\/user\/1?_format=hal_json"
                    },
                    "type": {
                        "href": "http:\/\/drupal.org\/rest\/type\/user\/user"
                    }
                },
                "uuid": [
                    {
                        "value": "45d2b412-82bf-4566-b487-ca24b15722e0"
                    }
                ]
            }
        ],
        "http:\/\/drupal.org\/rest\/relation\/node\/client_order\/uid": [
            {
                "_links": {
                    "self": {
                        "href": "http:\/\/default\/en\/user\/1?_format=hal_json"
                    },
                    "type": {
                        "href": "http:\/\/drupal.org\/rest\/type\/user\/user"
                    }
                },
                "uuid": [
                    {
                        "value": "45d2b412-82bf-4566-b487-ca24b15722e0"
                    }
                ],
                "lang": "uk"
            }
        ],
        "http:\/\/drupal.org\/rest\/relation\/node\/client_order\/field_boxing": [
            {
                "_links": {
                    "self": {
                        "href": "http:\/\/default\/uk\/taxonomy\/term\/44?_format=hal_json"
                    },
                    "type": {
                        "href": "http:\/\/drupal.org\/rest\/type\/taxonomy_term\/boxing"
                    }
                },
                "uuid": [
                    {
                        "value": "e8c330b0-f8a2-4f32-b5d4-4c718c4e3cfc"
                    }
                ],
                "path": {
                    "alias": "\/uk\/taxonomy\/term\/44"
                }
            }
        ],
        "http:\/\/drupal.org\/rest\/relation\/node\/client_order\/field_image": [
            {
                "_links": {
                    "self": {
                        "href": "http:\/\/default\/sites\/default\/files\/2019-10\/%D0%A1%D0%BE%D0%BB%D1%8F%D0%BD%D0%BE%D1%87%D0%BA%D0%B0.jpg"
                    },
                    "type": {
                        "href": "http:\/\/drupal.org\/rest\/type\/file\/file"
                    }
                },
                "uuid": [
                    {
                        "value": "a558cdd3-fb4c-4417-8697-97f0be22e92f"
                    }
                ],
                "lang": "uk"
            }
        ],
        "http:\/\/drupal.org\/rest\/relation\/node\/client_order\/field_made_in_country": [
            {
                "_links": {
                    "self": {
                        "href": "http:\/\/default\/uk\/taxonomy\/term\/15?_format=hal_json"
                    },
                    "type": {
                        "href": "http:\/\/drupal.org\/rest\/type\/taxonomy_term\/tovar"
                    }
                },
                "uuid": [
                    {
                        "value": "ba58f0c1-b2a5-4977-86c0-4676b356221f"
                    }
                ],
                "path": {
                    "alias": "\/uk\/taxonomy\/term\/15"
                }
            },
            {
                "_links": {
                    "self": {
                        "href": "http:\/\/default\/uk\/taxonomy\/term\/14?_format=hal_json"
                    },
                    "type": {
                        "href": "http:\/\/drupal.org\/rest\/type\/taxonomy_term\/tovar"
                    }
                },
                "uuid": [
                    {
                        "value": "7f234b17-c55b-47fe-82c7-3ece853673f9"
                    }
                ],
                "path": {
                    "alias": "\/uk\/taxonomy\/term\/14"
                }
            }
        ],
        "http:\/\/drupal.org\/rest\/relation\/node\/client_order\/field_product": [
            {
                "_links": {
                    "self": {
                        "href": "http:\/\/default\/uk\/taxonomy\/term\/17?_format=hal_json"
                    },
                    "type": {
                        "href": "http:\/\/drupal.org\/rest\/type\/taxonomy_term\/tovar"
                    }
                },
                "uuid": [
                    {
                        "value": "3c04d578-7042-4d0b-85f6-d1d1e14cc34f"
                    }
                ],
                "path": {
                    "alias": "\/uk\/taxonomy\/term\/17"
                }
            }
        ]
    },
    "status": [
        {
            "value": true,
            "lang": "uk"
        }
    ],
    "title": [
        {
            "value": "\u0421\u043e\u043b\u044f\u043d\u043e\u0447\u043a\u0430",
            "lang": "uk"
        }
    ],
    "created": [
        {
            "value": "2019-10-01T11:34:24+00:00",
            "lang": "uk",
            "format": "Y-m-d\\TH:i:sP"
        }
    ],
    "changed": [
        {
            "value": "2019-10-22T12:53:18+00:00",
            "lang": "uk",
            "format": "Y-m-d\\TH:i:sP"
        }
    ],
    "promote": [
        {
            "value": true,
            "lang": "uk"
        }
    ],
    "sticky": [
        {
            "value": false,
            "lang": "uk"
        }
    ],
    "default_langcode": [
        {
            "value": true,
            "lang": "uk"
        }
    ],
    "revision_translation_affected": [
        {
            "value": true,
            "lang": "uk"
        }
    ],
    "path": {
        "alias": "\/uk\/node\/130"
    },
    "add_to_cart": [
        {
            "value": true,
            "lang": "uk"
        }
    ],
    "add_to_cart_price": [
        {
            "value": "44.90",
            "lang": "uk"
        }
    ],
    "body": [
        {
            "value": "<p>\u0421\u043e\u043b\u044f\u043d\u043e\u0447\u043a\u0430 (\u0422\u0440\u0430\u0434\u0438\u0446\u0456\u0439\u043d\u0438\u0439 \u043c'\u044f\u0441\u043d\u0438\u0439 \u0441\u0443\u043f \u0437 \u043a\u043e\u043f\u0447\u0435\u043d\u043e\u0441\u0442\u044f\u043c\u0438, \u044f\u0437\u0438\u043a\u043e\u043c, \u0430 \u0442\u0430\u043a\u043e\u0436 \u043e\u043b\u0438\u0432\u043a\u0430\u043c\u0438 \u0442\u0430 \u043b\u0438\u043c\u043e\u043d\u043e\u043c)<\/p>\r\n",
            "format": "basic_html",
            "processed": "<p>\u0421\u043e\u043b\u044f\u043d\u043e\u0447\u043a\u0430 (\u0422\u0440\u0430\u0434\u0438\u0446\u0456\u0439\u043d\u0438\u0439 \u043c'\u044f\u0441\u043d\u0438\u0439 \u0441\u0443\u043f \u0437 \u043a\u043e\u043f\u0447\u0435\u043d\u043e\u0441\u0442\u044f\u043c\u0438, \u044f\u0437\u0438\u043a\u043e\u043c, \u0430 \u0442\u0430\u043a\u043e\u0436 \u043e\u043b\u0438\u0432\u043a\u0430\u043c\u0438 \u0442\u0430 \u043b\u0438\u043c\u043e\u043d\u043e\u043c)<\/p>",
            "summary": "",
            "lang": "uk"
        }
    ],
    "field_gramm": [
        {
            "value": "335 \u0433.",
            "lang": "uk"
        }
    ]
}