{
    "_links": {
        "self": {
            "href": "http:\/\/default\/uk\/node\/217?_format=hal_json"
        },
        "type": {
            "href": "http:\/\/drupal.org\/rest\/type\/node\/basic_cart_order"
        },
        "http:\/\/drupal.org\/rest\/relation\/node\/basic_cart_order\/revision_uid": [
            {
                "href": "http:\/\/default\/en\/user\/1?_format=hal_json"
            }
        ],
        "http:\/\/drupal.org\/rest\/relation\/node\/basic_cart_order\/uid": [
            {
                "href": "http:\/\/default\/en\/user\/1?_format=hal_json",
                "lang": "uk"
            }
        ],
        "http:\/\/drupal.org\/rest\/relation\/node\/basic_cart_order\/basic_cart_content": [
            {
                "href": "http:\/\/default\/uk\/node\/200?_format=hal_json",
                "lang": "uk"
            }
        ]
    },
    "nid": [
        {
            "value": 217
        }
    ],
    "uuid": [
        {
            "value": "2f75e508-9f91-4a7e-b619-e23abdc638a6"
        }
    ],
    "vid": [
        {
            "value": 372
        }
    ],
    "langcode": [
        {
            "value": "uk",
            "lang": "uk"
        }
    ],
    "type": [
        {
            "target_id": "basic_cart_order"
        }
    ],
    "revision_timestamp": [
        {
            "value": "2019-10-22T14:32:02+00:00",
            "format": "Y-m-d\\TH:i:sP"
        }
    ],
    "_embedded": {
        "http:\/\/drupal.org\/rest\/relation\/node\/basic_cart_order\/revision_uid": [
            {
                "_links": {
                    "self": {
                        "href": "http:\/\/default\/en\/user\/1?_format=hal_json"
                    },
                    "type": {
                        "href": "http:\/\/drupal.org\/rest\/type\/user\/user"
                    }
                },
                "uuid": [
                    {
                        "value": "45d2b412-82bf-4566-b487-ca24b15722e0"
                    }
                ]
            }
        ],
        "http:\/\/drupal.org\/rest\/relation\/node\/basic_cart_order\/uid": [
            {
                "_links": {
                    "self": {
                        "href": "http:\/\/default\/en\/user\/1?_format=hal_json"
                    },
                    "type": {
                        "href": "http:\/\/drupal.org\/rest\/type\/user\/user"
                    }
                },
                "uuid": [
                    {
                        "value": "45d2b412-82bf-4566-b487-ca24b15722e0"
                    }
                ],
                "lang": "uk"
            }
        ],
        "http:\/\/drupal.org\/rest\/relation\/node\/basic_cart_order\/basic_cart_content": [
            {
                "_links": {
                    "self": {
                        "href": "http:\/\/default\/uk\/node\/200?_format=hal_json"
                    },
                    "type": {
                        "href": "http:\/\/drupal.org\/rest\/type\/node\/client_order"
                    }
                },
                "uuid": [
                    {
                        "value": "82760171-8d58-4c9f-a01c-bac52e4b2d78"
                    }
                ],
                "path": {
                    "alias": "\/uk\/node\/200"
                },
                "lang": "uk"
            }
        ]
    },
    "status": [
        {
            "value": true,
            "lang": "uk"
        }
    ],
    "title": [
        {
            "value": "Test Offer 2",
            "lang": "uk"
        }
    ],
    "created": [
        {
            "value": "2019-10-22T14:32:02+00:00",
            "lang": "uk",
            "format": "Y-m-d\\TH:i:sP"
        }
    ],
    "changed": [
        {
            "value": "2019-10-22T14:32:02+00:00",
            "lang": "uk",
            "format": "Y-m-d\\TH:i:sP"
        }
    ],
    "promote": [
        {
            "value": true,
            "lang": "uk"
        }
    ],
    "sticky": [
        {
            "value": false,
            "lang": "uk"
        }
    ],
    "default_langcode": [
        {
            "value": true,
            "lang": "uk"
        }
    ],
    "revision_translation_affected": [
        {
            "value": true,
            "lang": "uk"
        }
    ],
    "path": {
        "alias": "\/uk\/node\/217"
    },
    "basic_cart_address": [
        {
            "value": "\u0412\u0438\u043d\u043d\u0438\u0447\u0435\u043d\u043a\u0430 15"
        }
    ],
    "basic_cart_city": [
        {
            "value": "151"
        }
    ],
    "basic_cart_email": [
        {
            "value": "dostavka@karabasbarabas.com.ua"
        }
    ],
    "basic_cart_phone": [
        {
            "value": "+380 (43)54-35-345"
        }
    ],
    "basic_cart_total_price": [
        {
            "value": "70.00"
        }
    ],
    "basic_cart_vat": [
        {
            "value": "0.00"
        }
    ],
    "basic_cart_zipcode": [
        {
            "value": "3-\u0439 \u043f\u0456\u0434\u0457\u0437\u0434"
        }
    ],
    "field_order_status": [
        {
            "value": "\u0412 \u043e\u0447\u0456\u043a\u0443\u0432\u0430\u043d\u043d\u0456"
        }
    ],
    "field_type_payment": [
        {
            "value": "Cart"
        }
    ]
}