{
    "_links": {
        "self": {
            "href": "http:\/\/default\/uk\/node\/173?_format=hal_json"
        },
        "type": {
            "href": "http:\/\/drupal.org\/rest\/type\/node\/client_order"
        },
        "http:\/\/drupal.org\/rest\/relation\/node\/client_order\/revision_uid": [
            {
                "href": "http:\/\/default\/en\/user\/1?_format=hal_json"
            }
        ],
        "http:\/\/drupal.org\/rest\/relation\/node\/client_order\/uid": [
            {
                "href": "http:\/\/default\/en\/user\/1?_format=hal_json",
                "lang": "uk"
            }
        ],
        "http:\/\/drupal.org\/rest\/relation\/node\/client_order\/field_boxing": [
            {
                "href": "http:\/\/default\/uk\/taxonomy\/term\/44?_format=hal_json"
            }
        ],
        "http:\/\/drupal.org\/rest\/relation\/node\/client_order\/field_image": [
            {
                "href": "http:\/\/default\/sites\/default\/files\/2019-10\/%D0%9F%D1%8E%D1%80%D0%B5.jpg",
                "lang": "uk"
            }
        ],
        "http:\/\/drupal.org\/rest\/relation\/node\/client_order\/field_made_in_country": [
            {
                "href": "http:\/\/default\/uk\/taxonomy\/term\/15?_format=hal_json"
            },
            {
                "href": "http:\/\/default\/uk\/taxonomy\/term\/14?_format=hal_json"
            }
        ],
        "http:\/\/drupal.org\/rest\/relation\/node\/client_order\/field_product": [
            {
                "href": "http:\/\/default\/uk\/taxonomy\/term\/25?_format=hal_json"
            }
        ]
    },
    "nid": [
        {
            "value": 173
        }
    ],
    "uuid": [
        {
            "value": "334becb0-7b78-4537-ba4b-8c1588b982af"
        }
    ],
    "vid": [
        {
            "value": 348
        }
    ],
    "langcode": [
        {
            "value": "uk",
            "lang": "uk"
        }
    ],
    "type": [
        {
            "target_id": "client_order"
        }
    ],
    "revision_timestamp": [
        {
            "value": "2019-10-22T13:05:58+00:00",
            "format": "Y-m-d\\TH:i:sP"
        }
    ],
    "_embedded": {
        "http:\/\/drupal.org\/rest\/relation\/node\/client_order\/revision_uid": [
            {
                "_links": {
                    "self": {
                        "href": "http:\/\/default\/en\/user\/1?_format=hal_json"
                    },
                    "type": {
                        "href": "http:\/\/drupal.org\/rest\/type\/user\/user"
                    }
                },
                "uuid": [
                    {
                        "value": "45d2b412-82bf-4566-b487-ca24b15722e0"
                    }
                ]
            }
        ],
        "http:\/\/drupal.org\/rest\/relation\/node\/client_order\/uid": [
            {
                "_links": {
                    "self": {
                        "href": "http:\/\/default\/en\/user\/1?_format=hal_json"
                    },
                    "type": {
                        "href": "http:\/\/drupal.org\/rest\/type\/user\/user"
                    }
                },
                "uuid": [
                    {
                        "value": "45d2b412-82bf-4566-b487-ca24b15722e0"
                    }
                ],
                "lang": "uk"
            }
        ],
        "http:\/\/drupal.org\/rest\/relation\/node\/client_order\/field_boxing": [
            {
                "_links": {
                    "self": {
                        "href": "http:\/\/default\/uk\/taxonomy\/term\/44?_format=hal_json"
                    },
                    "type": {
                        "href": "http:\/\/drupal.org\/rest\/type\/taxonomy_term\/boxing"
                    }
                },
                "uuid": [
                    {
                        "value": "e8c330b0-f8a2-4f32-b5d4-4c718c4e3cfc"
                    }
                ],
                "path": {
                    "alias": "\/uk\/taxonomy\/term\/44"
                }
            }
        ],
        "http:\/\/drupal.org\/rest\/relation\/node\/client_order\/field_image": [
            {
                "_links": {
                    "self": {
                        "href": "http:\/\/default\/sites\/default\/files\/2019-10\/%D0%9F%D1%8E%D1%80%D0%B5.jpg"
                    },
                    "type": {
                        "href": "http:\/\/drupal.org\/rest\/type\/file\/file"
                    }
                },
                "uuid": [
                    {
                        "value": "f8825566-282e-4089-baed-67d4062f0960"
                    }
                ],
                "lang": "uk"
            }
        ],
        "http:\/\/drupal.org\/rest\/relation\/node\/client_order\/field_made_in_country": [
            {
                "_links": {
                    "self": {
                        "href": "http:\/\/default\/uk\/taxonomy\/term\/15?_format=hal_json"
                    },
                    "type": {
                        "href": "http:\/\/drupal.org\/rest\/type\/taxonomy_term\/tovar"
                    }
                },
                "uuid": [
                    {
                        "value": "ba58f0c1-b2a5-4977-86c0-4676b356221f"
                    }
                ],
                "path": {
                    "alias": "\/uk\/taxonomy\/term\/15"
                }
            },
            {
                "_links": {
                    "self": {
                        "href": "http:\/\/default\/uk\/taxonomy\/term\/14?_format=hal_json"
                    },
                    "type": {
                        "href": "http:\/\/drupal.org\/rest\/type\/taxonomy_term\/tovar"
                    }
                },
                "uuid": [
                    {
                        "value": "7f234b17-c55b-47fe-82c7-3ece853673f9"
                    }
                ],
                "path": {
                    "alias": "\/uk\/taxonomy\/term\/14"
                }
            }
        ],
        "http:\/\/drupal.org\/rest\/relation\/node\/client_order\/field_product": [
            {
                "_links": {
                    "self": {
                        "href": "http:\/\/default\/uk\/taxonomy\/term\/25?_format=hal_json"
                    },
                    "type": {
                        "href": "http:\/\/drupal.org\/rest\/type\/taxonomy_term\/tovar"
                    }
                },
                "uuid": [
                    {
                        "value": "fad7b176-e970-45ec-b893-acad07c01e9d"
                    }
                ],
                "path": {
                    "alias": "\/uk\/taxonomy\/term\/25"
                }
            }
        ]
    },
    "status": [
        {
            "value": true,
            "lang": "uk"
        }
    ],
    "title": [
        {
            "value": "\u041a\u0430\u0440\u0442\u043e\u043f\u043b\u044f \u043f\u044e\u0440\u0435",
            "lang": "uk"
        }
    ],
    "created": [
        {
            "value": "2019-10-01T12:43:58+00:00",
            "lang": "uk",
            "format": "Y-m-d\\TH:i:sP"
        }
    ],
    "changed": [
        {
            "value": "2019-10-22T13:05:58+00:00",
            "lang": "uk",
            "format": "Y-m-d\\TH:i:sP"
        }
    ],
    "promote": [
        {
            "value": true,
            "lang": "uk"
        }
    ],
    "sticky": [
        {
            "value": false,
            "lang": "uk"
        }
    ],
    "default_langcode": [
        {
            "value": true,
            "lang": "uk"
        }
    ],
    "revision_translation_affected": [
        {
            "value": true,
            "lang": "uk"
        }
    ],
    "path": {
        "alias": "\/uk\/node\/173"
    },
    "add_to_cart": [
        {
            "value": true,
            "lang": "uk"
        }
    ],
    "add_to_cart_price": [
        {
            "value": "24.90",
            "lang": "uk"
        }
    ],
    "body": [
        {
            "value": "<p>\u041a\u0430\u0440\u0442\u043e\u043f\u043b\u044f \u043f\u044e\u0440\u0435 - \u0432\u0456\u0434\u0432\u0430\u0440\u0435\u043d\u0430 \u043a\u0430\u0440\u0442\u043e\u043f\u043b\u044f, \u0437\u0430\u0441\u043c\u0430\u0447\u0435\u043d\u0430 \u0432\u0435\u0440\u0448\u043a\u043e\u0432\u0438\u043c \u043c\u0430\u0441\u043b\u043e\u043c, \u0441\u043c\u0435\u0442\u0430\u043d\u043e\u044e \u0442\u0430 \u0432\u0435\u0440\u0448\u043a\u0430\u043c\u0438.<\/p>\r\n",
            "format": "basic_html",
            "processed": "<p>\u041a\u0430\u0440\u0442\u043e\u043f\u043b\u044f \u043f\u044e\u0440\u0435 - \u0432\u0456\u0434\u0432\u0430\u0440\u0435\u043d\u0430 \u043a\u0430\u0440\u0442\u043e\u043f\u043b\u044f, \u0437\u0430\u0441\u043c\u0430\u0447\u0435\u043d\u0430 \u0432\u0435\u0440\u0448\u043a\u043e\u0432\u0438\u043c \u043c\u0430\u0441\u043b\u043e\u043c, \u0441\u043c\u0435\u0442\u0430\u043d\u043e\u044e \u0442\u0430 \u0432\u0435\u0440\u0448\u043a\u0430\u043c\u0438.<\/p>",
            "summary": "",
            "lang": "uk"
        }
    ],
    "field_gramm": [
        {
            "value": "200 \u0433.",
            "lang": "uk"
        }
    ]
}