{
    "_links": {
        "self": {
            "href": "http:\/\/default\/uk\/node\/95?_format=hal_json"
        },
        "type": {
            "href": "http:\/\/drupal.org\/rest\/type\/node\/client_order"
        },
        "http:\/\/drupal.org\/rest\/relation\/node\/client_order\/revision_uid": [
            {
                "href": "http:\/\/default\/en\/user\/1?_format=hal_json"
            }
        ],
        "http:\/\/drupal.org\/rest\/relation\/node\/client_order\/uid": [
            {
                "href": "http:\/\/default\/en\/user\/1?_format=hal_json",
                "lang": "uk"
            }
        ],
        "http:\/\/drupal.org\/rest\/relation\/node\/client_order\/field_boxing": [
            {
                "href": "http:\/\/default\/uk\/taxonomy\/term\/44?_format=hal_json"
            }
        ],
        "http:\/\/drupal.org\/rest\/relation\/node\/client_order\/field_image": [
            {
                "href": "http:\/\/default\/sites\/default\/files\/2019-10\/%D0%A1%D1%83%D0%BB%D1%83%D0%B3%D1%83%D0%BD%D1%96%20%D1%84%D1%80%D1%96.jpg",
                "lang": "uk"
            }
        ],
        "http:\/\/drupal.org\/rest\/relation\/node\/client_order\/field_made_in_country": [
            {
                "href": "http:\/\/default\/uk\/taxonomy\/term\/15?_format=hal_json"
            },
            {
                "href": "http:\/\/default\/uk\/taxonomy\/term\/14?_format=hal_json"
            }
        ],
        "http:\/\/drupal.org\/rest\/relation\/node\/client_order\/field_product": [
            {
                "href": "http:\/\/default\/uk\/taxonomy\/term\/9?_format=hal_json"
            }
        ]
    },
    "nid": [
        {
            "value": 95
        }
    ],
    "uuid": [
        {
            "value": "58bf53ea-ad3f-41b2-a688-2affa15dd794"
        }
    ],
    "vid": [
        {
            "value": 278
        }
    ],
    "langcode": [
        {
            "value": "uk",
            "lang": "uk"
        }
    ],
    "type": [
        {
            "target_id": "client_order"
        }
    ],
    "revision_timestamp": [
        {
            "value": "2019-10-22T12:40:30+00:00",
            "format": "Y-m-d\\TH:i:sP"
        }
    ],
    "_embedded": {
        "http:\/\/drupal.org\/rest\/relation\/node\/client_order\/revision_uid": [
            {
                "_links": {
                    "self": {
                        "href": "http:\/\/default\/en\/user\/1?_format=hal_json"
                    },
                    "type": {
                        "href": "http:\/\/drupal.org\/rest\/type\/user\/user"
                    }
                },
                "uuid": [
                    {
                        "value": "45d2b412-82bf-4566-b487-ca24b15722e0"
                    }
                ]
            }
        ],
        "http:\/\/drupal.org\/rest\/relation\/node\/client_order\/uid": [
            {
                "_links": {
                    "self": {
                        "href": "http:\/\/default\/en\/user\/1?_format=hal_json"
                    },
                    "type": {
                        "href": "http:\/\/drupal.org\/rest\/type\/user\/user"
                    }
                },
                "uuid": [
                    {
                        "value": "45d2b412-82bf-4566-b487-ca24b15722e0"
                    }
                ],
                "lang": "uk"
            }
        ],
        "http:\/\/drupal.org\/rest\/relation\/node\/client_order\/field_boxing": [
            {
                "_links": {
                    "self": {
                        "href": "http:\/\/default\/uk\/taxonomy\/term\/44?_format=hal_json"
                    },
                    "type": {
                        "href": "http:\/\/drupal.org\/rest\/type\/taxonomy_term\/boxing"
                    }
                },
                "uuid": [
                    {
                        "value": "e8c330b0-f8a2-4f32-b5d4-4c718c4e3cfc"
                    }
                ],
                "path": {
                    "alias": "\/uk\/taxonomy\/term\/44"
                }
            }
        ],
        "http:\/\/drupal.org\/rest\/relation\/node\/client_order\/field_image": [
            {
                "_links": {
                    "self": {
                        "href": "http:\/\/default\/sites\/default\/files\/2019-10\/%D0%A1%D1%83%D0%BB%D1%83%D0%B3%D1%83%D0%BD%D1%96%20%D1%84%D1%80%D1%96.jpg"
                    },
                    "type": {
                        "href": "http:\/\/drupal.org\/rest\/type\/file\/file"
                    }
                },
                "uuid": [
                    {
                        "value": "456dd9fe-5228-4728-8611-07dfd403390f"
                    }
                ],
                "lang": "uk"
            }
        ],
        "http:\/\/drupal.org\/rest\/relation\/node\/client_order\/field_made_in_country": [
            {
                "_links": {
                    "self": {
                        "href": "http:\/\/default\/uk\/taxonomy\/term\/15?_format=hal_json"
                    },
                    "type": {
                        "href": "http:\/\/drupal.org\/rest\/type\/taxonomy_term\/tovar"
                    }
                },
                "uuid": [
                    {
                        "value": "ba58f0c1-b2a5-4977-86c0-4676b356221f"
                    }
                ],
                "path": {
                    "alias": "\/uk\/taxonomy\/term\/15"
                }
            },
            {
                "_links": {
                    "self": {
                        "href": "http:\/\/default\/uk\/taxonomy\/term\/14?_format=hal_json"
                    },
                    "type": {
                        "href": "http:\/\/drupal.org\/rest\/type\/taxonomy_term\/tovar"
                    }
                },
                "uuid": [
                    {
                        "value": "7f234b17-c55b-47fe-82c7-3ece853673f9"
                    }
                ],
                "path": {
                    "alias": "\/uk\/taxonomy\/term\/14"
                }
            }
        ],
        "http:\/\/drupal.org\/rest\/relation\/node\/client_order\/field_product": [
            {
                "_links": {
                    "self": {
                        "href": "http:\/\/default\/uk\/taxonomy\/term\/9?_format=hal_json"
                    },
                    "type": {
                        "href": "http:\/\/drupal.org\/rest\/type\/taxonomy_term\/tovar"
                    }
                },
                "uuid": [
                    {
                        "value": "8b59a816-9704-4c63-b5b7-4087a13bd82f"
                    }
                ],
                "path": {
                    "alias": "\/uk\/taxonomy\/term\/9"
                }
            }
        ]
    },
    "status": [
        {
            "value": true,
            "lang": "uk"
        }
    ],
    "title": [
        {
            "value": "\u0421\u0443\u043b\u0443\u0433\u0443\u043d\u0456 \u0444\u0440\u0456",
            "lang": "uk"
        }
    ],
    "created": [
        {
            "value": "2019-10-01T10:53:40+00:00",
            "lang": "uk",
            "format": "Y-m-d\\TH:i:sP"
        }
    ],
    "changed": [
        {
            "value": "2019-10-22T12:40:30+00:00",
            "lang": "uk",
            "format": "Y-m-d\\TH:i:sP"
        }
    ],
    "promote": [
        {
            "value": true,
            "lang": "uk"
        }
    ],
    "sticky": [
        {
            "value": false,
            "lang": "uk"
        }
    ],
    "default_langcode": [
        {
            "value": true,
            "lang": "uk"
        }
    ],
    "revision_translation_affected": [
        {
            "value": true,
            "lang": "uk"
        }
    ],
    "path": {
        "alias": "\/uk\/node\/95"
    },
    "add_to_cart": [
        {
            "value": true,
            "lang": "uk"
        }
    ],
    "add_to_cart_price": [
        {
            "value": "44.90",
            "lang": "uk"
        }
    ],
    "body": [
        {
            "value": "<p>\u0421\u0443\u043b\u0443\u0433\u0443\u043d\u0456 \u0444\u0440\u0456 (\u0421\u0443\u043b\u0443\u0433\u0443\u043d\u0456, \u0437\u0430\u0441\u043c\u0430\u0436\u0435\u043d\u0438\u0439 \u0443 \u0444\u0440\u0438\u0442\u044e\u0440\u0456 \u0434\u043e \u0445\u0440\u0443\u0441\u0442\u043a\u043e\u0457 \u0441\u043a\u043e\u0440\u0438\u043d\u043a\u0438 \u0437\u0437\u043e\u0432\u043d\u0456 \u0442\u0430 \u043c'\u044f\u043a\u0438\u0439 \u0432 \u0441\u0435\u0440\u0435\u0434\u0438\u043d\u0456. \u041f\u043e\u0434\u0430\u0454\u0442\u044c\u0441\u044f \u0437 \u0441\u043e\u0443\u0441\u043e\u043c \u0442\u0430\u0440 \u0442\u0430\u0440)&nbsp;334 \u043a\u043a\u043b<\/p>\r\n",
            "format": "basic_html",
            "processed": "<p>\u0421\u0443\u043b\u0443\u0433\u0443\u043d\u0456 \u0444\u0440\u0456 (\u0421\u0443\u043b\u0443\u0433\u0443\u043d\u0456, \u0437\u0430\u0441\u043c\u0430\u0436\u0435\u043d\u0438\u0439 \u0443 \u0444\u0440\u0438\u0442\u044e\u0440\u0456 \u0434\u043e \u0445\u0440\u0443\u0441\u0442\u043a\u043e\u0457 \u0441\u043a\u043e\u0440\u0438\u043d\u043a\u0438 \u0437\u0437\u043e\u0432\u043d\u0456 \u0442\u0430 \u043c'\u044f\u043a\u0438\u0439 \u0432 \u0441\u0435\u0440\u0435\u0434\u0438\u043d\u0456. \u041f\u043e\u0434\u0430\u0454\u0442\u044c\u0441\u044f \u0437 \u0441\u043e\u0443\u0441\u043e\u043c \u0442\u0430\u0440 \u0442\u0430\u0440)\u00a0334 \u043a\u043a\u043b<\/p>",
            "summary": "",
            "lang": "uk"
        }
    ],
    "field_gramm": [
        {
            "value": "100\/30 \u0433.",
            "lang": "uk"
        }
    ]
}