{
    "_links": {
        "self": {
            "href": "http:\/\/default\/uk\/node\/194?_format=hal_json"
        },
        "type": {
            "href": "http:\/\/drupal.org\/rest\/type\/node\/client_order"
        },
        "http:\/\/drupal.org\/rest\/relation\/node\/client_order\/revision_uid": [
            {
                "href": "http:\/\/default\/en\/user\/1?_format=hal_json"
            }
        ],
        "http:\/\/drupal.org\/rest\/relation\/node\/client_order\/uid": [
            {
                "href": "http:\/\/default\/en\/user\/1?_format=hal_json",
                "lang": "uk"
            }
        ],
        "http:\/\/drupal.org\/rest\/relation\/node\/client_order\/field_image": [
            {
                "href": "http:\/\/default\/sites\/default\/files\/2019-10\/%D0%9F%D1%96%D1%86%D0%B0%20%D0%9F%D1%94%D1%80%D0%BE.jpg",
                "lang": "uk"
            }
        ],
        "http:\/\/drupal.org\/rest\/relation\/node\/client_order\/field_made_in_country": [
            {
                "href": "http:\/\/default\/uk\/taxonomy\/term\/15?_format=hal_json"
            },
            {
                "href": "http:\/\/default\/uk\/taxonomy\/term\/14?_format=hal_json"
            }
        ],
        "http:\/\/drupal.org\/rest\/relation\/node\/client_order\/field_product": [
            {
                "href": "http:\/\/default\/uk\/taxonomy\/term\/4?_format=hal_json"
            }
        ]
    },
    "nid": [
        {
            "value": 194
        }
    ],
    "uuid": [
        {
            "value": "67c14b87-aceb-46f2-9f21-be9c0f1eab98"
        }
    ],
    "vid": [
        {
            "value": 105
        }
    ],
    "langcode": [
        {
            "value": "uk",
            "lang": "uk"
        }
    ],
    "type": [
        {
            "target_id": "client_order"
        }
    ],
    "revision_timestamp": [
        {
            "value": "2019-10-01T13:27:42+00:00",
            "format": "Y-m-d\\TH:i:sP"
        }
    ],
    "_embedded": {
        "http:\/\/drupal.org\/rest\/relation\/node\/client_order\/revision_uid": [
            {
                "_links": {
                    "self": {
                        "href": "http:\/\/default\/en\/user\/1?_format=hal_json"
                    },
                    "type": {
                        "href": "http:\/\/drupal.org\/rest\/type\/user\/user"
                    }
                },
                "uuid": [
                    {
                        "value": "45d2b412-82bf-4566-b487-ca24b15722e0"
                    }
                ]
            }
        ],
        "http:\/\/drupal.org\/rest\/relation\/node\/client_order\/uid": [
            {
                "_links": {
                    "self": {
                        "href": "http:\/\/default\/en\/user\/1?_format=hal_json"
                    },
                    "type": {
                        "href": "http:\/\/drupal.org\/rest\/type\/user\/user"
                    }
                },
                "uuid": [
                    {
                        "value": "45d2b412-82bf-4566-b487-ca24b15722e0"
                    }
                ],
                "lang": "uk"
            }
        ],
        "http:\/\/drupal.org\/rest\/relation\/node\/client_order\/field_image": [
            {
                "_links": {
                    "self": {
                        "href": "http:\/\/default\/sites\/default\/files\/2019-10\/%D0%9F%D1%96%D1%86%D0%B0%20%D0%9F%D1%94%D1%80%D0%BE.jpg"
                    },
                    "type": {
                        "href": "http:\/\/drupal.org\/rest\/type\/file\/file"
                    }
                },
                "uuid": [
                    {
                        "value": "a9ad5ebb-5d1c-4a5a-82e8-b3a31e9f8129"
                    }
                ],
                "lang": "uk"
            }
        ],
        "http:\/\/drupal.org\/rest\/relation\/node\/client_order\/field_made_in_country": [
            {
                "_links": {
                    "self": {
                        "href": "http:\/\/default\/uk\/taxonomy\/term\/15?_format=hal_json"
                    },
                    "type": {
                        "href": "http:\/\/drupal.org\/rest\/type\/taxonomy_term\/tovar"
                    }
                },
                "uuid": [
                    {
                        "value": "ba58f0c1-b2a5-4977-86c0-4676b356221f"
                    }
                ],
                "path": {
                    "alias": "\/uk\/taxonomy\/term\/15"
                }
            },
            {
                "_links": {
                    "self": {
                        "href": "http:\/\/default\/uk\/taxonomy\/term\/14?_format=hal_json"
                    },
                    "type": {
                        "href": "http:\/\/drupal.org\/rest\/type\/taxonomy_term\/tovar"
                    }
                },
                "uuid": [
                    {
                        "value": "7f234b17-c55b-47fe-82c7-3ece853673f9"
                    }
                ],
                "path": {
                    "alias": "\/uk\/taxonomy\/term\/14"
                }
            }
        ],
        "http:\/\/drupal.org\/rest\/relation\/node\/client_order\/field_product": [
            {
                "_links": {
                    "self": {
                        "href": "http:\/\/default\/uk\/taxonomy\/term\/4?_format=hal_json"
                    },
                    "type": {
                        "href": "http:\/\/drupal.org\/rest\/type\/taxonomy_term\/tovar"
                    }
                },
                "uuid": [
                    {
                        "value": "64491396-ffd5-4b34-bfcc-3bda974d4dec"
                    }
                ],
                "path": {
                    "alias": "\/uk\/taxonomy\/term\/4"
                }
            }
        ]
    },
    "status": [
        {
            "value": true,
            "lang": "uk"
        }
    ],
    "title": [
        {
            "value": "\u041f\u2019\u0454\u0440\u043e ",
            "lang": "uk"
        }
    ],
    "created": [
        {
            "value": "2019-10-01T13:27:03+00:00",
            "lang": "uk",
            "format": "Y-m-d\\TH:i:sP"
        }
    ],
    "changed": [
        {
            "value": "2019-10-01T13:27:42+00:00",
            "lang": "uk",
            "format": "Y-m-d\\TH:i:sP"
        }
    ],
    "promote": [
        {
            "value": true,
            "lang": "uk"
        }
    ],
    "sticky": [
        {
            "value": false,
            "lang": "uk"
        }
    ],
    "default_langcode": [
        {
            "value": true,
            "lang": "uk"
        }
    ],
    "revision_translation_affected": [
        {
            "value": true,
            "lang": "uk"
        }
    ],
    "path": {
        "alias": "\/uk\/node\/194"
    },
    "add_to_cart": [
        {
            "value": true,
            "lang": "uk"
        }
    ],
    "add_to_cart_price": [
        {
            "value": "99.90",
            "lang": "uk"
        }
    ],
    "body": [
        {
            "value": "<p>\u041f\u2019\u0454\u0440\u043e (\u0441\u043e\u0443\u0441 bbq, \u043a\u0443\u0440\u043a\u0430, \u043f\u0435\u0440\u0435\u0446\u044c \u0447\u0438\u043b\u0456, \u043f\u0435\u0440\u0435\u0446\u044c \u0431\u043e\u043b\u0433\u0430\u0440\u0441\u044c\u043a\u0438\u0439, \u0433\u0440\u0438\u0431\u0438, \u043f\u043e\u043c\u0456\u0434\u043e\u0440, \u0441\u0438\u0440 \u0442\u0432\u0435\u0440\u0434\u0438\u0439, \u0431\u0440\u0438\u043d\u0437\u0430, \u043f\u0430\u0440\u043c\u0435\u0437\u0430\u043d))<\/p>\r\n",
            "format": "basic_html",
            "processed": "<p>\u041f\u2019\u0454\u0440\u043e (\u0441\u043e\u0443\u0441 bbq, \u043a\u0443\u0440\u043a\u0430, \u043f\u0435\u0440\u0435\u0446\u044c \u0447\u0438\u043b\u0456, \u043f\u0435\u0440\u0435\u0446\u044c \u0431\u043e\u043b\u0433\u0430\u0440\u0441\u044c\u043a\u0438\u0439, \u0433\u0440\u0438\u0431\u0438, \u043f\u043e\u043c\u0456\u0434\u043e\u0440, \u0441\u0438\u0440 \u0442\u0432\u0435\u0440\u0434\u0438\u0439, \u0431\u0440\u0438\u043d\u0437\u0430, \u043f\u0430\u0440\u043c\u0435\u0437\u0430\u043d))<\/p>",
            "summary": "",
            "lang": "uk"
        }
    ]
}