{
    "_links": {
        "self": {
            "href": "http:\/\/default\/uk\/node\/142?_format=hal_json"
        },
        "type": {
            "href": "http:\/\/drupal.org\/rest\/type\/node\/client_order"
        },
        "http:\/\/drupal.org\/rest\/relation\/node\/client_order\/revision_uid": [
            {
                "href": "http:\/\/default\/en\/user\/1?_format=hal_json"
            }
        ],
        "http:\/\/drupal.org\/rest\/relation\/node\/client_order\/uid": [
            {
                "href": "http:\/\/default\/en\/user\/1?_format=hal_json",
                "lang": "uk"
            }
        ],
        "http:\/\/drupal.org\/rest\/relation\/node\/client_order\/field_boxing": [
            {
                "href": "http:\/\/default\/uk\/taxonomy\/term\/46?_format=hal_json"
            }
        ],
        "http:\/\/drupal.org\/rest\/relation\/node\/client_order\/field_image": [
            {
                "href": "http:\/\/default\/sites\/default\/files\/2019-10\/%D0%9F%D0%B0%D1%82%D0%B5%D0%BB%D1%8C%D0%BD%D1%8F%20%D0%B7%20%D0%BA%D0%BE%D0%BF%D1%87%D0%B5%D0%BD%D0%BE%D1%81%D1%82%D1%8F%D0%BC%D0%B8.jpg",
                "lang": "uk"
            }
        ],
        "http:\/\/drupal.org\/rest\/relation\/node\/client_order\/field_made_in_country": [
            {
                "href": "http:\/\/default\/uk\/taxonomy\/term\/15?_format=hal_json"
            },
            {
                "href": "http:\/\/default\/uk\/taxonomy\/term\/14?_format=hal_json"
            }
        ],
        "http:\/\/drupal.org\/rest\/relation\/node\/client_order\/field_product": [
            {
                "href": "http:\/\/default\/uk\/taxonomy\/term\/39?_format=hal_json"
            }
        ]
    },
    "nid": [
        {
            "value": 142
        }
    ],
    "uuid": [
        {
            "value": "7812a54d-0752-4ede-a1e9-41425052fcde"
        }
    ],
    "vid": [
        {
            "value": 320
        }
    ],
    "langcode": [
        {
            "value": "uk",
            "lang": "uk"
        }
    ],
    "type": [
        {
            "target_id": "client_order"
        }
    ],
    "revision_timestamp": [
        {
            "value": "2019-10-22T12:58:48+00:00",
            "format": "Y-m-d\\TH:i:sP"
        }
    ],
    "_embedded": {
        "http:\/\/drupal.org\/rest\/relation\/node\/client_order\/revision_uid": [
            {
                "_links": {
                    "self": {
                        "href": "http:\/\/default\/en\/user\/1?_format=hal_json"
                    },
                    "type": {
                        "href": "http:\/\/drupal.org\/rest\/type\/user\/user"
                    }
                },
                "uuid": [
                    {
                        "value": "45d2b412-82bf-4566-b487-ca24b15722e0"
                    }
                ]
            }
        ],
        "http:\/\/drupal.org\/rest\/relation\/node\/client_order\/uid": [
            {
                "_links": {
                    "self": {
                        "href": "http:\/\/default\/en\/user\/1?_format=hal_json"
                    },
                    "type": {
                        "href": "http:\/\/drupal.org\/rest\/type\/user\/user"
                    }
                },
                "uuid": [
                    {
                        "value": "45d2b412-82bf-4566-b487-ca24b15722e0"
                    }
                ],
                "lang": "uk"
            }
        ],
        "http:\/\/drupal.org\/rest\/relation\/node\/client_order\/field_boxing": [
            {
                "_links": {
                    "self": {
                        "href": "http:\/\/default\/uk\/taxonomy\/term\/46?_format=hal_json"
                    },
                    "type": {
                        "href": "http:\/\/drupal.org\/rest\/type\/taxonomy_term\/boxing"
                    }
                },
                "uuid": [
                    {
                        "value": "5bc7bd55-ee58-42e0-bfdc-f24bb4e60886"
                    }
                ],
                "path": {
                    "alias": "\/uk\/taxonomy\/term\/46"
                }
            }
        ],
        "http:\/\/drupal.org\/rest\/relation\/node\/client_order\/field_image": [
            {
                "_links": {
                    "self": {
                        "href": "http:\/\/default\/sites\/default\/files\/2019-10\/%D0%9F%D0%B0%D1%82%D0%B5%D0%BB%D1%8C%D0%BD%D1%8F%20%D0%B7%20%D0%BA%D0%BE%D0%BF%D1%87%D0%B5%D0%BD%D0%BE%D1%81%D1%82%D1%8F%D0%BC%D0%B8.jpg"
                    },
                    "type": {
                        "href": "http:\/\/drupal.org\/rest\/type\/file\/file"
                    }
                },
                "uuid": [
                    {
                        "value": "9bdc28c8-5191-42e3-9c0d-745f625e3eec"
                    }
                ],
                "lang": "uk"
            }
        ],
        "http:\/\/drupal.org\/rest\/relation\/node\/client_order\/field_made_in_country": [
            {
                "_links": {
                    "self": {
                        "href": "http:\/\/default\/uk\/taxonomy\/term\/15?_format=hal_json"
                    },
                    "type": {
                        "href": "http:\/\/drupal.org\/rest\/type\/taxonomy_term\/tovar"
                    }
                },
                "uuid": [
                    {
                        "value": "ba58f0c1-b2a5-4977-86c0-4676b356221f"
                    }
                ],
                "path": {
                    "alias": "\/uk\/taxonomy\/term\/15"
                }
            },
            {
                "_links": {
                    "self": {
                        "href": "http:\/\/default\/uk\/taxonomy\/term\/14?_format=hal_json"
                    },
                    "type": {
                        "href": "http:\/\/drupal.org\/rest\/type\/taxonomy_term\/tovar"
                    }
                },
                "uuid": [
                    {
                        "value": "7f234b17-c55b-47fe-82c7-3ece853673f9"
                    }
                ],
                "path": {
                    "alias": "\/uk\/taxonomy\/term\/14"
                }
            }
        ],
        "http:\/\/drupal.org\/rest\/relation\/node\/client_order\/field_product": [
            {
                "_links": {
                    "self": {
                        "href": "http:\/\/default\/uk\/taxonomy\/term\/39?_format=hal_json"
                    },
                    "type": {
                        "href": "http:\/\/drupal.org\/rest\/type\/taxonomy_term\/tovar"
                    }
                },
                "uuid": [
                    {
                        "value": "a3ffc3b8-94cc-45fb-9129-bfd302a60d99"
                    }
                ],
                "path": {
                    "alias": "\/uk\/taxonomy\/term\/39"
                }
            }
        ]
    },
    "status": [
        {
            "value": true,
            "lang": "uk"
        }
    ],
    "title": [
        {
            "value": "\u041f\u0430\u0442\u0435\u043b\u044c\u043d\u044f \u043c\u2019\u044f\u0441\u043d\u0430 \u0437 \u043a\u043e\u043f\u0447\u0435\u043d\u043e\u0441\u0442\u044f\u043c\u0438",
            "lang": "uk"
        }
    ],
    "created": [
        {
            "value": "2019-10-01T11:50:21+00:00",
            "lang": "uk",
            "format": "Y-m-d\\TH:i:sP"
        }
    ],
    "changed": [
        {
            "value": "2019-10-22T12:58:48+00:00",
            "lang": "uk",
            "format": "Y-m-d\\TH:i:sP"
        }
    ],
    "promote": [
        {
            "value": true,
            "lang": "uk"
        }
    ],
    "sticky": [
        {
            "value": false,
            "lang": "uk"
        }
    ],
    "default_langcode": [
        {
            "value": true,
            "lang": "uk"
        }
    ],
    "revision_translation_affected": [
        {
            "value": true,
            "lang": "uk"
        }
    ],
    "path": {
        "alias": "\/uk\/node\/142"
    },
    "add_to_cart": [
        {
            "value": true,
            "lang": "uk"
        }
    ],
    "add_to_cart_price": [
        {
            "value": "174.90",
            "lang": "uk"
        }
    ],
    "body": [
        {
            "value": "<p>\u041f\u0430\u0442\u0435\u043b\u044c\u043d\u044f \u043c\u2019\u044f\u0441\u043d\u0430 \u0437 \u043a\u043e\u043f\u0447\u0435\u043d\u043e\u0441\u0442\u044f\u043c\u0438 (\u0414\u0443\u0436\u0430 \u043f\u043e\u0440\u0446\u0456\u044f \u0441\u043c\u0430\u0436\u0435\u043d\u0438\u0445 \u043a\u043e\u043f\u0447\u0435\u043d\u043e\u0441\u0442\u0435\u0439, \u0431\u0443\u043b\u044c\u0431\u0438 \u0437 \u0446\u0438\u0431\u0443\u043b\u044c\u043a\u043e\u044e, \u043f\u0435\u0447\u0435\u0440\u0438\u0446\u044f\u043c\u0438 \u0442\u0430 \u043e\u043c\u043b\u0435\u0442\u043e\u043c. \u041f\u043e\u0434\u0430\u0454\u0442\u044c\u0441\u044f \u043d\u0430 \u0440\u043e\u0437\u043f\u0435\u0447\u0435\u043d\u0456\u0439 \u043f\u0430\u0442\u0430\u043b\u044c\u043d\u0456 \u0442\u0430 \u0437\u0430\u0442\u0438\u0440\u0430\u0454\u0442\u044c\u0441\u044f \u0441\u0438\u0440\u043e\u043c)<\/p>\r\n",
            "format": "basic_html",
            "processed": "<p>\u041f\u0430\u0442\u0435\u043b\u044c\u043d\u044f \u043c\u2019\u044f\u0441\u043d\u0430 \u0437 \u043a\u043e\u043f\u0447\u0435\u043d\u043e\u0441\u0442\u044f\u043c\u0438 (\u0414\u0443\u0436\u0430 \u043f\u043e\u0440\u0446\u0456\u044f \u0441\u043c\u0430\u0436\u0435\u043d\u0438\u0445 \u043a\u043e\u043f\u0447\u0435\u043d\u043e\u0441\u0442\u0435\u0439, \u0431\u0443\u043b\u044c\u0431\u0438 \u0437 \u0446\u0438\u0431\u0443\u043b\u044c\u043a\u043e\u044e, \u043f\u0435\u0447\u0435\u0440\u0438\u0446\u044f\u043c\u0438 \u0442\u0430 \u043e\u043c\u043b\u0435\u0442\u043e\u043c. \u041f\u043e\u0434\u0430\u0454\u0442\u044c\u0441\u044f \u043d\u0430 \u0440\u043e\u0437\u043f\u0435\u0447\u0435\u043d\u0456\u0439 \u043f\u0430\u0442\u0430\u043b\u044c\u043d\u0456 \u0442\u0430 \u0437\u0430\u0442\u0438\u0440\u0430\u0454\u0442\u044c\u0441\u044f \u0441\u0438\u0440\u043e\u043c)<\/p>",
            "summary": "",
            "lang": "uk"
        }
    ],
    "field_gramm": [
        {
            "value": "840\u0433.",
            "lang": "uk"
        }
    ]
}