{
    "_links": {
        "self": {
            "href": "http:\/\/default\/uk\/node\/152?_format=hal_json"
        },
        "type": {
            "href": "http:\/\/drupal.org\/rest\/type\/node\/client_order"
        },
        "http:\/\/drupal.org\/rest\/relation\/node\/client_order\/revision_uid": [
            {
                "href": "http:\/\/default\/en\/user\/1?_format=hal_json"
            }
        ],
        "http:\/\/drupal.org\/rest\/relation\/node\/client_order\/uid": [
            {
                "href": "http:\/\/default\/en\/user\/1?_format=hal_json",
                "lang": "uk"
            }
        ],
        "http:\/\/drupal.org\/rest\/relation\/node\/client_order\/field_boxing": [
            {
                "href": "http:\/\/default\/uk\/taxonomy\/term\/44?_format=hal_json"
            }
        ],
        "http:\/\/drupal.org\/rest\/relation\/node\/client_order\/field_image": [
            {
                "href": "http:\/\/default\/sites\/default\/files\/2019-10\/%D0%94%D0%B5%D1%80%D1%83%D0%BD%D0%B8%20%D0%B7%20%D0%BA%D1%83%D1%80%D0%BA%D0%BE%D1%8E%20%D0%BF%D1%96%D0%B4%20%D1%81%D0%B8%D1%80%D0%BE%D0%BC.jpg",
                "lang": "uk"
            }
        ],
        "http:\/\/drupal.org\/rest\/relation\/node\/client_order\/field_made_in_country": [
            {
                "href": "http:\/\/default\/uk\/taxonomy\/term\/15?_format=hal_json"
            },
            {
                "href": "http:\/\/default\/uk\/taxonomy\/term\/14?_format=hal_json"
            }
        ],
        "http:\/\/drupal.org\/rest\/relation\/node\/client_order\/field_product": [
            {
                "href": "http:\/\/default\/uk\/taxonomy\/term\/20?_format=hal_json"
            }
        ]
    },
    "nid": [
        {
            "value": 152
        }
    ],
    "uuid": [
        {
            "value": "9f23b8dc-ca31-4019-81d0-143916b120cc"
        }
    ],
    "vid": [
        {
            "value": 330
        }
    ],
    "langcode": [
        {
            "value": "uk",
            "lang": "uk"
        }
    ],
    "type": [
        {
            "target_id": "client_order"
        }
    ],
    "revision_timestamp": [
        {
            "value": "2019-10-22T13:01:01+00:00",
            "format": "Y-m-d\\TH:i:sP"
        }
    ],
    "_embedded": {
        "http:\/\/drupal.org\/rest\/relation\/node\/client_order\/revision_uid": [
            {
                "_links": {
                    "self": {
                        "href": "http:\/\/default\/en\/user\/1?_format=hal_json"
                    },
                    "type": {
                        "href": "http:\/\/drupal.org\/rest\/type\/user\/user"
                    }
                },
                "uuid": [
                    {
                        "value": "45d2b412-82bf-4566-b487-ca24b15722e0"
                    }
                ]
            }
        ],
        "http:\/\/drupal.org\/rest\/relation\/node\/client_order\/uid": [
            {
                "_links": {
                    "self": {
                        "href": "http:\/\/default\/en\/user\/1?_format=hal_json"
                    },
                    "type": {
                        "href": "http:\/\/drupal.org\/rest\/type\/user\/user"
                    }
                },
                "uuid": [
                    {
                        "value": "45d2b412-82bf-4566-b487-ca24b15722e0"
                    }
                ],
                "lang": "uk"
            }
        ],
        "http:\/\/drupal.org\/rest\/relation\/node\/client_order\/field_boxing": [
            {
                "_links": {
                    "self": {
                        "href": "http:\/\/default\/uk\/taxonomy\/term\/44?_format=hal_json"
                    },
                    "type": {
                        "href": "http:\/\/drupal.org\/rest\/type\/taxonomy_term\/boxing"
                    }
                },
                "uuid": [
                    {
                        "value": "e8c330b0-f8a2-4f32-b5d4-4c718c4e3cfc"
                    }
                ],
                "path": {
                    "alias": "\/uk\/taxonomy\/term\/44"
                }
            }
        ],
        "http:\/\/drupal.org\/rest\/relation\/node\/client_order\/field_image": [
            {
                "_links": {
                    "self": {
                        "href": "http:\/\/default\/sites\/default\/files\/2019-10\/%D0%94%D0%B5%D1%80%D1%83%D0%BD%D0%B8%20%D0%B7%20%D0%BA%D1%83%D1%80%D0%BA%D0%BE%D1%8E%20%D0%BF%D1%96%D0%B4%20%D1%81%D0%B8%D1%80%D0%BE%D0%BC.jpg"
                    },
                    "type": {
                        "href": "http:\/\/drupal.org\/rest\/type\/file\/file"
                    }
                },
                "uuid": [
                    {
                        "value": "ceee2510-9678-4c85-8a96-2a5861e1170d"
                    }
                ],
                "lang": "uk"
            }
        ],
        "http:\/\/drupal.org\/rest\/relation\/node\/client_order\/field_made_in_country": [
            {
                "_links": {
                    "self": {
                        "href": "http:\/\/default\/uk\/taxonomy\/term\/15?_format=hal_json"
                    },
                    "type": {
                        "href": "http:\/\/drupal.org\/rest\/type\/taxonomy_term\/tovar"
                    }
                },
                "uuid": [
                    {
                        "value": "ba58f0c1-b2a5-4977-86c0-4676b356221f"
                    }
                ],
                "path": {
                    "alias": "\/uk\/taxonomy\/term\/15"
                }
            },
            {
                "_links": {
                    "self": {
                        "href": "http:\/\/default\/uk\/taxonomy\/term\/14?_format=hal_json"
                    },
                    "type": {
                        "href": "http:\/\/drupal.org\/rest\/type\/taxonomy_term\/tovar"
                    }
                },
                "uuid": [
                    {
                        "value": "7f234b17-c55b-47fe-82c7-3ece853673f9"
                    }
                ],
                "path": {
                    "alias": "\/uk\/taxonomy\/term\/14"
                }
            }
        ],
        "http:\/\/drupal.org\/rest\/relation\/node\/client_order\/field_product": [
            {
                "_links": {
                    "self": {
                        "href": "http:\/\/default\/uk\/taxonomy\/term\/20?_format=hal_json"
                    },
                    "type": {
                        "href": "http:\/\/drupal.org\/rest\/type\/taxonomy_term\/tovar"
                    }
                },
                "uuid": [
                    {
                        "value": "8f3ab17d-50f5-4ad3-a5ad-2e286e5032c8"
                    }
                ],
                "path": {
                    "alias": "\/uk\/taxonomy\/term\/20"
                }
            }
        ]
    },
    "status": [
        {
            "value": true,
            "lang": "uk"
        }
    ],
    "title": [
        {
            "value": "\u0414\u0435\u0440\u0443\u043d\u0438 \u0437 \u043a\u0443\u0440\u043a\u043e\u044e \u043f\u0456\u0434 \u0441\u0438\u0440\u043e\u043c",
            "lang": "uk"
        }
    ],
    "created": [
        {
            "value": "2019-10-01T12:24:29+00:00",
            "lang": "uk",
            "format": "Y-m-d\\TH:i:sP"
        }
    ],
    "changed": [
        {
            "value": "2019-10-22T13:01:01+00:00",
            "lang": "uk",
            "format": "Y-m-d\\TH:i:sP"
        }
    ],
    "promote": [
        {
            "value": true,
            "lang": "uk"
        }
    ],
    "sticky": [
        {
            "value": false,
            "lang": "uk"
        }
    ],
    "default_langcode": [
        {
            "value": true,
            "lang": "uk"
        }
    ],
    "revision_translation_affected": [
        {
            "value": true,
            "lang": "uk"
        }
    ],
    "path": {
        "alias": "\/uk\/node\/152"
    },
    "add_to_cart": [
        {
            "value": true,
            "lang": "uk"
        }
    ],
    "add_to_cart_price": [
        {
            "value": "49.90",
            "lang": "uk"
        }
    ],
    "body": [
        {
            "value": "<p>\u0414\u0435\u0440\u0443\u043d\u0438 \u0437 \u043a\u0443\u0440\u043a\u043e\u044e \u043f\u0456\u0434 \u0441\u0438\u0440\u043e\u043c (\u0421\u0438\u0442\u043d\u0456 \u0434\u0435\u0440\u0443\u043d\u0438 \u0456\u0437 \u0441\u043e\u0443\u0441\u043e\u043c \u0437 \u043f\u0435\u0447\u0435\u0440\u0438\u0446\u044c \u0442\u0430 \u0441\u043c\u0430\u0436\u0435\u043d\u043e\u0433\u043e \u043a\u0443\u0440\u044f\u0447\u043e\u0433\u043e \u0444\u0456\u043b\u0435, \u0437\u0430\u043f\u0435\u0447\u0435\u043d\u0456 \u043f\u0456\u0434 \u0448\u0430\u043f\u043a\u043e\u044e \u0440\u043e\u0437\u043f\u043b\u0430\u0432\u043b\u0435\u043d\u043e\u0433\u043e \u0441\u0438\u0440\u0443.)<\/p>\r\n",
            "format": "basic_html",
            "processed": "<p>\u0414\u0435\u0440\u0443\u043d\u0438 \u0437 \u043a\u0443\u0440\u043a\u043e\u044e \u043f\u0456\u0434 \u0441\u0438\u0440\u043e\u043c (\u0421\u0438\u0442\u043d\u0456 \u0434\u0435\u0440\u0443\u043d\u0438 \u0456\u0437 \u0441\u043e\u0443\u0441\u043e\u043c \u0437 \u043f\u0435\u0447\u0435\u0440\u0438\u0446\u044c \u0442\u0430 \u0441\u043c\u0430\u0436\u0435\u043d\u043e\u0433\u043e \u043a\u0443\u0440\u044f\u0447\u043e\u0433\u043e \u0444\u0456\u043b\u0435, \u0437\u0430\u043f\u0435\u0447\u0435\u043d\u0456 \u043f\u0456\u0434 \u0448\u0430\u043f\u043a\u043e\u044e \u0440\u043e\u0437\u043f\u043b\u0430\u0432\u043b\u0435\u043d\u043e\u0433\u043e \u0441\u0438\u0440\u0443.)<\/p>",
            "summary": "",
            "lang": "uk"
        }
    ],
    "field_gramm": [
        {
            "value": "340 \u0433.",
            "lang": "uk"
        }
    ]
}